
Running eldo v6.6_1.1 on ec-102v2-01

with Eldo libraries :
/local/tools/anacad/eldo/v6.6_1.1/x86_64/os2.6/libeldoudm_64.so
/local/tools/anacad/eldo/v6.6_1.1/x86_64/os2.6/libeldomos1_64.so
/local/tools/anacad/eldo/v6.6_1.1/x86_64/os2.6/libeldoekv_64.so
/local/tools/anacad/eldo/v6.6_1.1/x86_64/os2.6/libeldomosp9_64.so
/local/tools/anacad/eldo/v6.6_1.1/x86_64/os2.6/libeldocsem_64.so
/local/tools/anacad/eldo/v6.6_1.1/x86_64/os2.6/libeldomos2_64.so
/local/tools/anacad/eldo/v6.6_1.1/x86_64/os2.6/libeldomos3_64.so
/local/tools/anacad/eldo/v6.6_1.1/x86_64/os2.6/libeldobip_64.so
/local/tools/anacad/eldo/v6.6_1.1/x86_64/os2.6/libeldodio_64.so
/local/tools/anacad/eldo/v6.6_1.1/x86_64/os2.6/libeldojfet_64.so
/local/tools/anacad/eldo/v6.6_1.1/x86_64/os2.6/libeldosoi_64.so
/local/tools/anacad/eldo/v6.6_1.1/x86_64/os2.6/libeldomos4_64.so
/local/tools/anacad/eldo/v6.6_1.1/x86_64/os2.6/libeldoasitft_64.so
/local/tools/anacad/eldo/v6.6_1.1/x86_64/os2.6/libeldohisim_64.so
/local/tools/anacad/eldo/v6.6_1.1/x86_64/os2.6/libeldospmod_64.so
/local/tools/anacad/eldo/v6.6_1.1/x86_64/os2.6/libeldopsp_64.so
/local/tools/anacad/eldo/v6.6_1.1/x86_64/os2.6/libeldomoto_64.so
/local/tools/anacad/eldo/v6.6_1.1/x86_64/os2.6/libeldost_64.so
/local/tools/anacad/eldo/v6.6_1.1/x86_64/os2.6/libeldobnr_64.so
/local/tools/anacad/eldo/v6.6_1.1/x86_64/os2.6/libeldorockw_64.so
/local/tools/anacad/eldo/v6.6_1.1/x86_64/os2.6/libeldopubhicum_64.so
/local/tools/anacad/eldo/v6.6_1.1/x86_64/os2.6/libeldotftsh_64.so
/local/tools/anacad/eldo/v6.6_1.1/x86_64/os2.6/libeldobta_64.so
/local/tools/anacad/eldo/v6.6_1.1/x86_64/os2.6/libeldofas_64.so
/local/tools/anacad/eldo/v6.6_1.1/x86_64/os2.6/libeldofascm_64.so
/local/tools/anacad/eldo/v6.6_1.1/x86_64/os2.6/libeldova_64.so
/local/tools/anacad/eldo/v6.6_1.1/x86_64/os2.6/libeldovafnc_64.so
/local/tools/anacad/eldo/v6.6_1.1/x86_64/os2.6/libeldosdsim_64.so
/local/tools/anacad/eldo/v6.6_1.1/x86_64/os2.6/libeldoudrm_64.so
/local/tools/anacad/eldo/v6.6_1.1/x86_64/os2.6/libeldowire_64.so



              Software under License 
       Copyright Mentor Graphics Corporation




***** ANALYSIS ....


***** 0  error(s). 
***** 0  warning(s). 



***** GENERATION ...


***** 0  error(s). 
***** 0  warning(s). 


INFORMATION ABOUT COMPILATION...


Memory space allocated (bytes): 836100
8 elements
5 nodes 
2 input signals


run number 1
 value of parameter for WP is 7.000000E-06

Eldo VERSION : ELDO v6.6_1.1 Production(64 bits) Wed Sep 28 08:48:28 GMT 2005

*** DATE: 27-May-2015 14:09:56

*** TITLE: * --------------------------- Parameters ---------------------------

TEMPERATURE : 27.000000 degrees C

Connecting to JWDB server, please wait...
connected to wdb server : -jwdbhost ec-102v2-01 -jwdbport 44306


Eldo NEWTON: VNTOL=1.000000e-06 RELTOL=7.500000e-04

Compute from 0.000000 Nano to 5.000000 Nano
................................................
Simulation progress           : 10%
Elapsed CPU time              : 0h 0mn 0s 0
................................................
Simulation progress           : 20%
Elapsed CPU time              : 0h 0mn 0s 0
................................................
Simulation progress           : 30%
Elapsed CPU time              : 0h 0mn 0s 10
................................................
Simulation progress           : 40%
Elapsed CPU time              : 0h 0mn 0s 10
................................................
Simulation progress           : 50%
Elapsed CPU time              : 0h 0mn 0s 10
................................................
Simulation progress           : 60%
Elapsed CPU time              : 0h 0mn 0s 10
................................................
Simulation progress           : 70%
Elapsed CPU time              : 0h 0mn 0s 10
................................................
Simulation progress           : 80%
Elapsed CPU time              : 0h 0mn 0s 10
................................................
Simulation progress           : 90%
Elapsed CPU time              : 0h 0mn 0s 10
................................................
Simulation progress           : 100%
Elapsed CPU time              : 0h 0mn 0s 10


***>Current simulation completed


 DELAY_RISE  =  5.8062E-11   
 DELAY_FALL  =  6.1363E-11   



***>CPU TIME 0s 010ms <***



run number 2
 value of parameter for WP is 7.100000E-06

Eldo VERSION : ELDO v6.6_1.1 Production(64 bits) Wed Sep 28 08:48:28 GMT 2005

*** DATE: 27-May-2015 14:09:56

*** TITLE: * --------------------------- Parameters ---------------------------

TEMPERATURE : 27.000000 degrees C


Eldo NEWTON: VNTOL=1.000000e-06 RELTOL=7.500000e-04

Compute from 0.000000 Nano to 5.000000 Nano
................................................
Simulation progress           : 10%
Elapsed CPU time              : 0h 0mn 0s 0
................................................
Simulation progress           : 20%
Elapsed CPU time              : 0h 0mn 0s 10
................................................
Simulation progress           : 30%
Elapsed CPU time              : 0h 0mn 0s 10
................................................
Simulation progress           : 40%
Elapsed CPU time              : 0h 0mn 0s 10
................................................
Simulation progress           : 50%
Elapsed CPU time              : 0h 0mn 0s 10
................................................
Simulation progress           : 60%
Elapsed CPU time              : 0h 0mn 0s 10
................................................
Simulation progress           : 70%
Elapsed CPU time              : 0h 0mn 0s 10
................................................
Simulation progress           : 80%
Elapsed CPU time              : 0h 0mn 0s 10
................................................
Simulation progress           : 90%
Elapsed CPU time              : 0h 0mn 0s 10
................................................
Simulation progress           : 100%
Elapsed CPU time              : 0h 0mn 0s 10


***>Current simulation completed


 DELAY_RISE  =  5.8387E-11   
 DELAY_FALL  =  6.1073E-11   



***>CPU TIME 0s 010ms <***



run number 3
 value of parameter for WP is 7.200000E-06

Eldo VERSION : ELDO v6.6_1.1 Production(64 bits) Wed Sep 28 08:48:28 GMT 2005

*** DATE: 27-May-2015 14:09:56

*** TITLE: * --------------------------- Parameters ---------------------------

TEMPERATURE : 27.000000 degrees C


Eldo NEWTON: VNTOL=1.000000e-06 RELTOL=7.500000e-04

Compute from 0.000000 Nano to 5.000000 Nano
................................................
Simulation progress           : 10%
Elapsed CPU time              : 0h 0mn 0s 0
................................................
Simulation progress           : 20%
Elapsed CPU time              : 0h 0mn 0s 0
................................................
Simulation progress           : 30%
Elapsed CPU time              : 0h 0mn 0s 0
................................................
Simulation progress           : 40%
Elapsed CPU time              : 0h 0mn 0s 10
................................................
Simulation progress           : 50%
Elapsed CPU time              : 0h 0mn 0s 10
................................................
Simulation progress           : 60%
Elapsed CPU time              : 0h 0mn 0s 10
................................................
Simulation progress           : 70%
Elapsed CPU time              : 0h 0mn 0s 10
................................................
Simulation progress           : 80%
Elapsed CPU time              : 0h 0mn 0s 10
................................................
Simulation progress           : 90%
Elapsed CPU time              : 0h 0mn 0s 10
................................................
Simulation progress           : 100%
Elapsed CPU time              : 0h 0mn 0s 10


***>Current simulation completed


 DELAY_RISE  =  5.8721E-11   
 DELAY_FALL  =  6.0696E-11   



***>CPU TIME 0s 010ms <***



run number 4
 value of parameter for WP is 7.300000E-06

Eldo VERSION : ELDO v6.6_1.1 Production(64 bits) Wed Sep 28 08:48:28 GMT 2005

*** DATE: 27-May-2015 14:09:56

*** TITLE: * --------------------------- Parameters ---------------------------

TEMPERATURE : 27.000000 degrees C


Eldo NEWTON: VNTOL=1.000000e-06 RELTOL=7.500000e-04

Compute from 0.000000 Nano to 5.000000 Nano
................................................
Simulation progress           : 10%
Elapsed CPU time              : 0h 0mn 0s 0
................................................
Simulation progress           : 20%
Elapsed CPU time              : 0h 0mn 0s 0
................................................
Simulation progress           : 30%
Elapsed CPU time              : 0h 0mn 0s 10
................................................
Simulation progress           : 40%
Elapsed CPU time              : 0h 0mn 0s 10
................................................
Simulation progress           : 50%
Elapsed CPU time              : 0h 0mn 0s 10
................................................
Simulation progress           : 60%
Elapsed CPU time              : 0h 0mn 0s 10
................................................
Simulation progress           : 70%
Elapsed CPU time              : 0h 0mn 0s 10
................................................
Simulation progress           : 80%
Elapsed CPU time              : 0h 0mn 0s 10
................................................
Simulation progress           : 90%
Elapsed CPU time              : 0h 0mn 0s 10
................................................
Simulation progress           : 100%
Elapsed CPU time              : 0h 0mn 0s 10


***>Current simulation completed


 DELAY_RISE  =  5.9064E-11   
 DELAY_FALL  =  6.0324E-11   



***>CPU TIME 0s 010ms <***



run number 5
 value of parameter for WP is 7.400000E-06

Eldo VERSION : ELDO v6.6_1.1 Production(64 bits) Wed Sep 28 08:48:28 GMT 2005

*** DATE: 27-May-2015 14:09:56

*** TITLE: * --------------------------- Parameters ---------------------------

TEMPERATURE : 27.000000 degrees C


Eldo NEWTON: VNTOL=1.000000e-06 RELTOL=7.500000e-04

Compute from 0.000000 Nano to 5.000000 Nano
................................................
Simulation progress           : 10%
Elapsed CPU time              : 0h 0mn 0s 0
................................................
Simulation progress           : 20%
Elapsed CPU time              : 0h 0mn 0s 0
................................................
Simulation progress           : 30%
Elapsed CPU time              : 0h 0mn 0s 0
................................................
Simulation progress           : 40%
Elapsed CPU time              : 0h 0mn 0s 0
................................................
Simulation progress           : 50%
Elapsed CPU time              : 0h 0mn 0s 0
................................................
Simulation progress           : 60%
Elapsed CPU time              : 0h 0mn 0s 10
................................................
Simulation progress           : 70%
Elapsed CPU time              : 0h 0mn 0s 10
................................................
Simulation progress           : 80%
Elapsed CPU time              : 0h 0mn 0s 10
................................................
Simulation progress           : 90%
Elapsed CPU time              : 0h 0mn 0s 10
................................................
Simulation progress           : 100%
Elapsed CPU time              : 0h 0mn 0s 10


***>Current simulation completed


 DELAY_RISE  =  5.9413E-11   
 DELAY_FALL  =  5.9966E-11   



***>CPU TIME 0s 010ms <***



run number 6
 value of parameter for WP is 7.500000E-06

Eldo VERSION : ELDO v6.6_1.1 Production(64 bits) Wed Sep 28 08:48:28 GMT 2005

*** DATE: 27-May-2015 14:09:56

*** TITLE: * --------------------------- Parameters ---------------------------

TEMPERATURE : 27.000000 degrees C


Eldo NEWTON: VNTOL=1.000000e-06 RELTOL=7.500000e-04

Compute from 0.000000 Nano to 5.000000 Nano
................................................
Simulation progress           : 10%
Elapsed CPU time              : 0h 0mn 0s 0
................................................
Simulation progress           : 20%
Elapsed CPU time              : 0h 0mn 0s 0
................................................
Simulation progress           : 30%
Elapsed CPU time              : 0h 0mn 0s 0
................................................
Simulation progress           : 40%
Elapsed CPU time              : 0h 0mn 0s 0
................................................
Simulation progress           : 50%
Elapsed CPU time              : 0h 0mn 0s 0
................................................
Simulation progress           : 60%
Elapsed CPU time              : 0h 0mn 0s 10
................................................
Simulation progress           : 70%
Elapsed CPU time              : 0h 0mn 0s 10
................................................
Simulation progress           : 80%
Elapsed CPU time              : 0h 0mn 0s 10
................................................
Simulation progress           : 90%
Elapsed CPU time              : 0h 0mn 0s 10
................................................
Simulation progress           : 100%
Elapsed CPU time              : 0h 0mn 0s 10


***>Current simulation completed


 DELAY_RISE  =  5.9769E-11   
 DELAY_FALL  =  5.9619E-11   



***>CPU TIME 0s 010ms <***



run number 7
 value of parameter for WP is 7.600000E-06

Eldo VERSION : ELDO v6.6_1.1 Production(64 bits) Wed Sep 28 08:48:28 GMT 2005

*** DATE: 27-May-2015 14:09:56

*** TITLE: * --------------------------- Parameters ---------------------------

TEMPERATURE : 27.000000 degrees C


Eldo NEWTON: VNTOL=1.000000e-06 RELTOL=7.500000e-04

Compute from 0.000000 Nano to 5.000000 Nano
................................................
Simulation progress           : 10%
Elapsed CPU time              : 0h 0mn 0s 0
................................................
Simulation progress           : 20%
Elapsed CPU time              : 0h 0mn 0s 0
................................................
Simulation progress           : 30%
Elapsed CPU time              : 0h 0mn 0s 0
................................................
Simulation progress           : 40%
Elapsed CPU time              : 0h 0mn 0s 0
................................................
Simulation progress           : 50%
Elapsed CPU time              : 0h 0mn 0s 0
................................................
Simulation progress           : 60%
Elapsed CPU time              : 0h 0mn 0s 0
................................................
Simulation progress           : 70%
Elapsed CPU time              : 0h 0mn 0s 0
................................................
Simulation progress           : 80%
Elapsed CPU time              : 0h 0mn 0s 0
................................................
Simulation progress           : 90%
Elapsed CPU time              : 0h 0mn 0s 0
................................................
Simulation progress           : 100%
Elapsed CPU time              : 0h 0mn 0s 0


***>Current simulation completed


 DELAY_RISE  =  6.0132E-11   
 DELAY_FALL  =  5.9287E-11   



***>CPU TIME 0s 000ms <***



run number 8
 value of parameter for WP is 7.700000E-06

Eldo VERSION : ELDO v6.6_1.1 Production(64 bits) Wed Sep 28 08:48:28 GMT 2005

*** DATE: 27-May-2015 14:09:56

*** TITLE: * --------------------------- Parameters ---------------------------

TEMPERATURE : 27.000000 degrees C


Eldo NEWTON: VNTOL=1.000000e-06 RELTOL=7.500000e-04

Compute from 0.000000 Nano to 5.000000 Nano
................................................
Simulation progress           : 10%
Elapsed CPU time              : 0h 0mn 0s 10
................................................
Simulation progress           : 20%
Elapsed CPU time              : 0h 0mn 0s 10
................................................
Simulation progress           : 30%
Elapsed CPU time              : 0h 0mn 0s 10
................................................
Simulation progress           : 40%
Elapsed CPU time              : 0h 0mn 0s 10
................................................
Simulation progress           : 50%
Elapsed CPU time              : 0h 0mn 0s 10
................................................
Simulation progress           : 60%
Elapsed CPU time              : 0h 0mn 0s 10
................................................
Simulation progress           : 70%
Elapsed CPU time              : 0h 0mn 0s 10
................................................
Simulation progress           : 80%
Elapsed CPU time              : 0h 0mn 0s 10
................................................
Simulation progress           : 90%
Elapsed CPU time              : 0h 0mn 0s 20
................................................
Simulation progress           : 100%
Elapsed CPU time              : 0h 0mn 0s 20


***>Current simulation completed


 DELAY_RISE  =  6.0502E-11   
 DELAY_FALL  =  5.9046E-11   



***>CPU TIME 0s 020ms <***



run number 9
 value of parameter for WP is 7.800000E-06

Eldo VERSION : ELDO v6.6_1.1 Production(64 bits) Wed Sep 28 08:48:28 GMT 2005

*** DATE: 27-May-2015 14:09:56

*** TITLE: * --------------------------- Parameters ---------------------------

TEMPERATURE : 27.000000 degrees C


Eldo NEWTON: VNTOL=1.000000e-06 RELTOL=7.500000e-04

Compute from 0.000000 Nano to 5.000000 Nano
................................................
Simulation progress           : 10%
Elapsed CPU time              : 0h 0mn 0s 0
................................................
Simulation progress           : 20%
Elapsed CPU time              : 0h 0mn 0s 0
................................................
Simulation progress           : 30%
Elapsed CPU time              : 0h 0mn 0s 0
................................................
Simulation progress           : 40%
Elapsed CPU time              : 0h 0mn 0s 0
................................................
Simulation progress           : 50%
Elapsed CPU time              : 0h 0mn 0s 0
................................................
Simulation progress           : 60%
Elapsed CPU time              : 0h 0mn 0s 0
................................................
Simulation progress           : 70%
Elapsed CPU time              : 0h 0mn 0s 0
................................................
Simulation progress           : 80%
Elapsed CPU time              : 0h 0mn 0s 0
................................................
Simulation progress           : 90%
Elapsed CPU time              : 0h 0mn 0s 0
................................................
Simulation progress           : 100%
Elapsed CPU time              : 0h 0mn 0s 0


***>Current simulation completed


 DELAY_RISE  =  6.0877E-11   
 DELAY_FALL  =  5.8677E-11   



***>CPU TIME 0s 000ms <***



run number 10
 value of parameter for WP is 7.900000E-06

Eldo VERSION : ELDO v6.6_1.1 Production(64 bits) Wed Sep 28 08:48:28 GMT 2005

*** DATE: 27-May-2015 14:09:56

*** TITLE: * --------------------------- Parameters ---------------------------

TEMPERATURE : 27.000000 degrees C


Eldo NEWTON: VNTOL=1.000000e-06 RELTOL=7.500000e-04

Compute from 0.000000 Nano to 5.000000 Nano
................................................
Simulation progress           : 10%
Elapsed CPU time              : 0h 0mn 0s 0
................................................
Simulation progress           : 20%
Elapsed CPU time              : 0h 0mn 0s 0
................................................
Simulation progress           : 30%
Elapsed CPU time              : 0h 0mn 0s 10
................................................
Simulation progress           : 40%
Elapsed CPU time              : 0h 0mn 0s 10
................................................
Simulation progress           : 50%
Elapsed CPU time              : 0h 0mn 0s 10
................................................
Simulation progress           : 60%
Elapsed CPU time              : 0h 0mn 0s 10
................................................
Simulation progress           : 70%
Elapsed CPU time              : 0h 0mn 0s 10
................................................
Simulation progress           : 80%
Elapsed CPU time              : 0h 0mn 0s 10
................................................
Simulation progress           : 90%
Elapsed CPU time              : 0h 0mn 0s 10
................................................
Simulation progress           : 100%
Elapsed CPU time              : 0h 0mn 0s 10


***>Current simulation completed


 DELAY_RISE  =  6.1257E-11   
 DELAY_FALL  =  5.8342E-11   



***>CPU TIME 0s 010ms <***



run number 11
 value of parameter for WP is 8.000000E-06

Eldo VERSION : ELDO v6.6_1.1 Production(64 bits) Wed Sep 28 08:48:28 GMT 2005

*** DATE: 27-May-2015 14:09:56

*** TITLE: * --------------------------- Parameters ---------------------------

TEMPERATURE : 27.000000 degrees C


Eldo NEWTON: VNTOL=1.000000e-06 RELTOL=7.500000e-04

Compute from 0.000000 Nano to 5.000000 Nano
................................................
Simulation progress           : 10%
Elapsed CPU time              : 0h 0mn 0s 0
................................................
Simulation progress           : 20%
Elapsed CPU time              : 0h 0mn 0s 0
................................................
Simulation progress           : 30%
Elapsed CPU time              : 0h 0mn 0s 10
................................................
Simulation progress           : 40%
Elapsed CPU time              : 0h 0mn 0s 10
................................................
Simulation progress           : 50%
Elapsed CPU time              : 0h 0mn 0s 10
................................................
Simulation progress           : 60%
Elapsed CPU time              : 0h 0mn 0s 10
................................................
Simulation progress           : 70%
Elapsed CPU time              : 0h 0mn 0s 10
................................................
Simulation progress           : 80%
Elapsed CPU time              : 0h 0mn 0s 10
................................................
Simulation progress           : 90%
Elapsed CPU time              : 0h 0mn 0s 10
................................................
Simulation progress           : 100%
Elapsed CPU time              : 0h 0mn 0s 10


***>Current simulation completed


 DELAY_RISE  =  6.1643E-11   
 DELAY_FALL  =  5.8021E-11   



***>CPU TIME 0s 010ms <***



run number 12
 value of parameter for WP is 8.100000E-06

Eldo VERSION : ELDO v6.6_1.1 Production(64 bits) Wed Sep 28 08:48:28 GMT 2005

*** DATE: 27-May-2015 14:09:56

*** TITLE: * --------------------------- Parameters ---------------------------

TEMPERATURE : 27.000000 degrees C


Eldo NEWTON: VNTOL=1.000000e-06 RELTOL=7.500000e-04

Compute from 0.000000 Nano to 5.000000 Nano
................................................
Simulation progress           : 10%
Elapsed CPU time              : 0h 0mn 0s 0
................................................
Simulation progress           : 20%
Elapsed CPU time              : 0h 0mn 0s 0
................................................
Simulation progress           : 30%
Elapsed CPU time              : 0h 0mn 0s 10
................................................
Simulation progress           : 40%
Elapsed CPU time              : 0h 0mn 0s 10
................................................
Simulation progress           : 50%
Elapsed CPU time              : 0h 0mn 0s 10
................................................
Simulation progress           : 60%
Elapsed CPU time              : 0h 0mn 0s 10
................................................
Simulation progress           : 70%
Elapsed CPU time              : 0h 0mn 0s 10
................................................
Simulation progress           : 80%
Elapsed CPU time              : 0h 0mn 0s 10
................................................
Simulation progress           : 90%
Elapsed CPU time              : 0h 0mn 0s 10
................................................
Simulation progress           : 100%
Elapsed CPU time              : 0h 0mn 0s 10


***>Current simulation completed


 DELAY_RISE  =  6.2034E-11   
 DELAY_FALL  =  5.7735E-11   



***>CPU TIME 0s 010ms <***



run number 13
 value of parameter for WP is 8.200000E-06

Eldo VERSION : ELDO v6.6_1.1 Production(64 bits) Wed Sep 28 08:48:28 GMT 2005

*** DATE: 27-May-2015 14:09:56

*** TITLE: * --------------------------- Parameters ---------------------------

TEMPERATURE : 27.000000 degrees C


Eldo NEWTON: VNTOL=1.000000e-06 RELTOL=7.500000e-04

Compute from 0.000000 Nano to 5.000000 Nano
................................................
Simulation progress           : 10%
Elapsed CPU time              : 0h 0mn 0s 10
................................................
Simulation progress           : 20%
Elapsed CPU time              : 0h 0mn 0s 10
................................................
Simulation progress           : 30%
Elapsed CPU time              : 0h 0mn 0s 10
................................................
Simulation progress           : 40%
Elapsed CPU time              : 0h 0mn 0s 10
................................................
Simulation progress           : 50%
Elapsed CPU time              : 0h 0mn 0s 10
................................................
Simulation progress           : 60%
Elapsed CPU time              : 0h 0mn 0s 10
................................................
Simulation progress           : 70%
Elapsed CPU time              : 0h 0mn 0s 10
................................................
Simulation progress           : 80%
Elapsed CPU time              : 0h 0mn 0s 10
................................................
Simulation progress           : 90%
Elapsed CPU time              : 0h 0mn 0s 10
................................................
Simulation progress           : 100%
Elapsed CPU time              : 0h 0mn 0s 10


***>Current simulation completed


 DELAY_RISE  =  6.2430E-11   
 DELAY_FALL  =  5.7487E-11   



***>CPU TIME 0s 010ms <***



run number 14
 value of parameter for WP is 8.300000E-06

Eldo VERSION : ELDO v6.6_1.1 Production(64 bits) Wed Sep 28 08:48:28 GMT 2005

*** DATE: 27-May-2015 14:09:56

*** TITLE: * --------------------------- Parameters ---------------------------

TEMPERATURE : 27.000000 degrees C


Eldo NEWTON: VNTOL=1.000000e-06 RELTOL=7.500000e-04

Compute from 0.000000 Nano to 5.000000 Nano
................................................
Simulation progress           : 10%
Elapsed CPU time              : 0h 0mn 0s 0
................................................
Simulation progress           : 20%
Elapsed CPU time              : 0h 0mn 0s 0
................................................
Simulation progress           : 30%
Elapsed CPU time              : 0h 0mn 0s 0
................................................
Simulation progress           : 40%
Elapsed CPU time              : 0h 0mn 0s 10
................................................
Simulation progress           : 50%
Elapsed CPU time              : 0h 0mn 0s 10
................................................
Simulation progress           : 60%
Elapsed CPU time              : 0h 0mn 0s 10
................................................
Simulation progress           : 70%
Elapsed CPU time              : 0h 0mn 0s 10
................................................
Simulation progress           : 80%
Elapsed CPU time              : 0h 0mn 0s 10
................................................
Simulation progress           : 90%
Elapsed CPU time              : 0h 0mn 0s 10
................................................
Simulation progress           : 100%
Elapsed CPU time              : 0h 0mn 0s 10


***>Current simulation completed


 DELAY_RISE  =  6.2831E-11   
 DELAY_FALL  =  5.7334E-11   



***>CPU TIME 0s 010ms <***



run number 15
 value of parameter for WP is 8.400000E-06

Eldo VERSION : ELDO v6.6_1.1 Production(64 bits) Wed Sep 28 08:48:28 GMT 2005

*** DATE: 27-May-2015 14:09:56

*** TITLE: * --------------------------- Parameters ---------------------------

TEMPERATURE : 27.000000 degrees C


Eldo NEWTON: VNTOL=1.000000e-06 RELTOL=7.500000e-04

Compute from 0.000000 Nano to 5.000000 Nano
................................................
Simulation progress           : 10%
Elapsed CPU time              : 0h 0mn 0s 0
................................................
Simulation progress           : 20%
Elapsed CPU time              : 0h 0mn 0s 0
................................................
Simulation progress           : 30%
Elapsed CPU time              : 0h 0mn 0s 0
................................................
Simulation progress           : 40%
Elapsed CPU time              : 0h 0mn 0s 10
................................................
Simulation progress           : 50%
Elapsed CPU time              : 0h 0mn 0s 10
................................................
Simulation progress           : 60%
Elapsed CPU time              : 0h 0mn 0s 10
................................................
Simulation progress           : 70%
Elapsed CPU time              : 0h 0mn 0s 10
................................................
Simulation progress           : 80%
Elapsed CPU time              : 0h 0mn 0s 10
................................................
Simulation progress           : 90%
Elapsed CPU time              : 0h 0mn 0s 10
................................................
Simulation progress           : 100%
Elapsed CPU time              : 0h 0mn 0s 10


***>Current simulation completed


 DELAY_RISE  =  6.3237E-11   
 DELAY_FALL  =  5.7241E-11   



***>CPU TIME 0s 010ms <***



run number 16
 value of parameter for WP is 8.500000E-06

Eldo VERSION : ELDO v6.6_1.1 Production(64 bits) Wed Sep 28 08:48:28 GMT 2005

*** DATE: 27-May-2015 14:09:56

*** TITLE: * --------------------------- Parameters ---------------------------

TEMPERATURE : 27.000000 degrees C


Eldo NEWTON: VNTOL=1.000000e-06 RELTOL=7.500000e-04

Compute from 0.000000 Nano to 5.000000 Nano
................................................
Simulation progress           : 10%
Elapsed CPU time              : 0h 0mn 0s 0
................................................
Simulation progress           : 20%
Elapsed CPU time              : 0h 0mn 0s 0
................................................
Simulation progress           : 30%
Elapsed CPU time              : 0h 0mn 0s 0
................................................
Simulation progress           : 40%
Elapsed CPU time              : 0h 0mn 0s 0
................................................
Simulation progress           : 50%
Elapsed CPU time              : 0h 0mn 0s 0
................................................
Simulation progress           : 60%
Elapsed CPU time              : 0h 0mn 0s 10
................................................
Simulation progress           : 70%
Elapsed CPU time              : 0h 0mn 0s 10
................................................
Simulation progress           : 80%
Elapsed CPU time              : 0h 0mn 0s 10
................................................
Simulation progress           : 90%
Elapsed CPU time              : 0h 0mn 0s 10
................................................
Simulation progress           : 100%
Elapsed CPU time              : 0h 0mn 0s 10


***>Current simulation completed


 DELAY_RISE  =  6.3648E-11   
 DELAY_FALL  =  5.7144E-11   



***>CPU TIME 0s 010ms <***



run number 17
 value of parameter for WP is 8.600000E-06

Eldo VERSION : ELDO v6.6_1.1 Production(64 bits) Wed Sep 28 08:48:28 GMT 2005

*** DATE: 27-May-2015 14:09:56

*** TITLE: * --------------------------- Parameters ---------------------------

TEMPERATURE : 27.000000 degrees C


Eldo NEWTON: VNTOL=1.000000e-06 RELTOL=7.500000e-04

Compute from 0.000000 Nano to 5.000000 Nano
................................................
Simulation progress           : 10%
Elapsed CPU time              : 0h 0mn 0s 0
................................................
Simulation progress           : 20%
Elapsed CPU time              : 0h 0mn 0s 0
................................................
Simulation progress           : 30%
Elapsed CPU time              : 0h 0mn 0s 0
................................................
Simulation progress           : 40%
Elapsed CPU time              : 0h 0mn 0s 0
................................................
Simulation progress           : 50%
Elapsed CPU time              : 0h 0mn 0s 0
................................................
Simulation progress           : 60%
Elapsed CPU time              : 0h 0mn 0s 0
................................................
Simulation progress           : 70%
Elapsed CPU time              : 0h 0mn 0s 0
................................................
Simulation progress           : 80%
Elapsed CPU time              : 0h 0mn 0s 0
................................................
Simulation progress           : 90%
Elapsed CPU time              : 0h 0mn 0s 0
................................................
Simulation progress           : 100%
Elapsed CPU time              : 0h 0mn 0s 10


***>Current simulation completed


 DELAY_RISE  =  6.4063E-11   
 DELAY_FALL  =  5.7043E-11   



***>CPU TIME 0s 010ms <***



run number 18
 value of parameter for WP is 8.700000E-06

Eldo VERSION : ELDO v6.6_1.1 Production(64 bits) Wed Sep 28 08:48:28 GMT 2005

*** DATE: 27-May-2015 14:09:56

*** TITLE: * --------------------------- Parameters ---------------------------

TEMPERATURE : 27.000000 degrees C


Eldo NEWTON: VNTOL=1.000000e-06 RELTOL=7.500000e-04

Compute from 0.000000 Nano to 5.000000 Nano
................................................
Simulation progress           : 10%
Elapsed CPU time              : 0h 0mn 0s 0
................................................
Simulation progress           : 20%
Elapsed CPU time              : 0h 0mn 0s 0
................................................
Simulation progress           : 30%
Elapsed CPU time              : 0h 0mn 0s 0
................................................
Simulation progress           : 40%
Elapsed CPU time              : 0h 0mn 0s 0
................................................
Simulation progress           : 50%
Elapsed CPU time              : 0h 0mn 0s 0
................................................
Simulation progress           : 60%
Elapsed CPU time              : 0h 0mn 0s 0
................................................
Simulation progress           : 70%
Elapsed CPU time              : 0h 0mn 0s 0
................................................
Simulation progress           : 80%
Elapsed CPU time              : 0h 0mn 0s 0
................................................
Simulation progress           : 90%
Elapsed CPU time              : 0h 0mn 0s 0
................................................
Simulation progress           : 100%
Elapsed CPU time              : 0h 0mn 0s 0


***>Current simulation completed


 DELAY_RISE  =  6.4496E-11   
 DELAY_FALL  =  5.6111E-11   



***>CPU TIME 0s 000ms <***



run number 19
 value of parameter for WP is 8.800000E-06

Eldo VERSION : ELDO v6.6_1.1 Production(64 bits) Wed Sep 28 08:48:28 GMT 2005

*** DATE: 27-May-2015 14:09:56

*** TITLE: * --------------------------- Parameters ---------------------------

TEMPERATURE : 27.000000 degrees C


Eldo NEWTON: VNTOL=1.000000e-06 RELTOL=7.500000e-04

Compute from 0.000000 Nano to 5.000000 Nano
................................................
Simulation progress           : 10%
Elapsed CPU time              : 0h 0mn 0s 0
................................................
Simulation progress           : 20%
Elapsed CPU time              : 0h 0mn 0s 0
................................................
Simulation progress           : 30%
Elapsed CPU time              : 0h 0mn 0s 10
................................................
Simulation progress           : 40%
Elapsed CPU time              : 0h 0mn 0s 10
................................................
Simulation progress           : 50%
Elapsed CPU time              : 0h 0mn 0s 10
................................................
Simulation progress           : 60%
Elapsed CPU time              : 0h 0mn 0s 10
................................................
Simulation progress           : 70%
Elapsed CPU time              : 0h 0mn 0s 10
................................................
Simulation progress           : 80%
Elapsed CPU time              : 0h 0mn 0s 10
................................................
Simulation progress           : 90%
Elapsed CPU time              : 0h 0mn 0s 10
................................................
Simulation progress           : 100%
Elapsed CPU time              : 0h 0mn 0s 10


***>Current simulation completed


 DELAY_RISE  =  6.4921E-11   
 DELAY_FALL  =  5.5888E-11   



***>CPU TIME 0s 010ms <***



run number 20
 value of parameter for WP is 8.900000E-06

Eldo VERSION : ELDO v6.6_1.1 Production(64 bits) Wed Sep 28 08:48:28 GMT 2005

*** DATE: 27-May-2015 14:09:56

*** TITLE: * --------------------------- Parameters ---------------------------

TEMPERATURE : 27.000000 degrees C


Eldo NEWTON: VNTOL=1.000000e-06 RELTOL=7.500000e-04

Compute from 0.000000 Nano to 5.000000 Nano
................................................
Simulation progress           : 10%
Elapsed CPU time              : 0h 0mn 0s 0
................................................
Simulation progress           : 20%
Elapsed CPU time              : 0h 0mn 0s 0
................................................
Simulation progress           : 30%
Elapsed CPU time              : 0h 0mn 0s 10
................................................
Simulation progress           : 40%
Elapsed CPU time              : 0h 0mn 0s 10
................................................
Simulation progress           : 50%
Elapsed CPU time              : 0h 0mn 0s 10
................................................
Simulation progress           : 60%
Elapsed CPU time              : 0h 0mn 0s 10
................................................
Simulation progress           : 70%
Elapsed CPU time              : 0h 0mn 0s 10
................................................
Simulation progress           : 80%
Elapsed CPU time              : 0h 0mn 0s 10
................................................
Simulation progress           : 90%
Elapsed CPU time              : 0h 0mn 0s 10
................................................
Simulation progress           : 100%
Elapsed CPU time              : 0h 0mn 0s 10


***>Current simulation completed


 DELAY_RISE  =  6.5351E-11   
 DELAY_FALL  =  5.5672E-11   



***>CPU TIME 0s 010ms <***



run number 21
 value of parameter for WP is 9.000000E-06

Eldo VERSION : ELDO v6.6_1.1 Production(64 bits) Wed Sep 28 08:48:28 GMT 2005

*** DATE: 27-May-2015 14:09:56

*** TITLE: * --------------------------- Parameters ---------------------------

TEMPERATURE : 27.000000 degrees C


Eldo NEWTON: VNTOL=1.000000e-06 RELTOL=7.500000e-04

Compute from 0.000000 Nano to 5.000000 Nano
................................................
Simulation progress           : 10%
Elapsed CPU time              : 0h 0mn 0s 0
................................................
Simulation progress           : 20%
Elapsed CPU time              : 0h 0mn 0s 0
................................................
Simulation progress           : 30%
Elapsed CPU time              : 0h 0mn 0s 0
................................................
Simulation progress           : 40%
Elapsed CPU time              : 0h 0mn 0s 0
................................................
Simulation progress           : 50%
Elapsed CPU time              : 0h 0mn 0s 0
................................................
Simulation progress           : 60%
Elapsed CPU time              : 0h 0mn 0s 10
................................................
Simulation progress           : 70%
Elapsed CPU time              : 0h 0mn 0s 10
................................................
Simulation progress           : 80%
Elapsed CPU time              : 0h 0mn 0s 10
................................................
Simulation progress           : 90%
Elapsed CPU time              : 0h 0mn 0s 10
................................................
Simulation progress           : 100%
Elapsed CPU time              : 0h 0mn 0s 10


***>Current simulation completed


 DELAY_RISE  =  6.5621E-11   
 DELAY_FALL  =  5.5464E-11   


SIMULATION INFORMATION 
memory size allocated in bytes 1497549
Latency: 0.000000%
average number of newton iterations: 2.819277
nb of components: 20
nb of nodes: 17
nb of MOS or BIP calls: 2134
Number of steps computed: 166

***>CPU TIME 0s 010ms <***


***>GLOBAL CPU TIME 0s 190ms <***


***>GLOBAL ELAPSED TIME 0s <***


