* --------------------------- Parameters ---------------------------
.param T1=0.55ns tsweep=0.1n

* ---------------------------  Includes  ---------------------------
.include "invccc.sp"

* ------------------------------ INVERSOR ------------------------------
X1 VIN VOUT VDD 0 INV

* --------------------------- Capacitor ----------------------------
Cp  VOUT  0   50fF
  
VDD  VDD 0 3v
VIN  VIN 0 PULSE (0 3.0 0 '0.01*T1' '0.01*T1' '0.49*T1' T1)

* --------------------------- Commands -----------------------------
.op
*.tran 0.1n '5*T1' 0 1p SWEEP tsweep 0.1n 3n 0.01n
.tran 0.1n '5*T1' 0 1p 
.ic V(VIN) = 0
.plot v(VOUT) v(VIN) id(X1.mM0) id(X1.mM1)

*.meas tran MinZero find v(VOUT) when v(VIN)=2.95 fall=5
*.meas tran MaxUm   find v(VOUT) when v(VIN)=0.05 rise=5
*.meas tran power avg i(vdd) from=T1 to='2*T1'
*.meas tran consumed_power PARAM='3*power'

.include "cmos.mod"

.end
