\relax 
\catcode `"\active 
\providecommand \oddpage@label [2]{}
\select@language{brazilian}
\@writefile{toc}{\select@language{brazilian}}
\@writefile{lof}{\select@language{brazilian}}
\@writefile{lot}{\select@language{brazilian}}
\@writefile{toc}{\contentsline {section}{\numberline {1}Introdu\IeC {\c c}\IeC {\~a}o}{4}}
\@writefile{toc}{\contentsline {section}{\numberline {2}Projeto}{5}}
\@writefile{lof}{\contentsline {figure}{\numberline {1}{\ignorespaces Esquem\IeC {\'a}tico Fonte de corrente de Wilson (transistores PMOS indicados com uma circunfer\IeC {\^e}ncia preta no \emph  {gate})}}{5}}
\newlabel{fig:schematic_fontecir}{{1}{5}}
\@writefile{lof}{\contentsline {figure}{\numberline {2}{\ignorespaces Correntes dos transistores NMOS ($A$) em fun\IeC {\c c}\IeC {\~a}o da tens\IeC {\~a}o ($V$) da fonte de corrente dada}}{6}}
\newlabel{fig:inversores_q4}{{2}{6}}
\@writefile{lof}{\contentsline {figure}{\numberline {3}{\ignorespaces Esquem\IeC {\'a}tico de tr\IeC {\^e}s inversores ligados em s\IeC {\'e}rie}}{7}}
\newlabel{fig:schematic_3inv}{{3}{7}}
\@writefile{lof}{\contentsline {figure}{\numberline {4}{\ignorespaces \emph  {Layout} de um transistor (medidas em $\ensuremath  {\SI@fstyle  {\upmu }}m$)}}{7}}
\newlabel{fig:mos_layout}{{4}{7}}
\@writefile{lof}{\contentsline {figure}{\numberline {5}{\ignorespaces Tens\IeC {\~a}o de sa\IeC {\'\i }da do primeiro inversor ($V$) com rela\IeC {\c c}\IeC {\~a}o \IeC {\`a} tens\IeC {\~a}o de entrada do circuito ($V$)}}{8}}
\newlabel{fig:inversores_q6}{{5}{8}}
\newlabel{equ:sin_damped_command}{{1}{9}}
\@writefile{lof}{\contentsline {figure}{\numberline {6}{\ignorespaces Tens\IeC {\~a}o dos sinais de entrada e sa\IeC {\'\i }da dos inversores ($V$) com rela\IeC {\c c}\IeC {\~a}o ao tempo ($ns$) com per\IeC {\'\i }odo de $1ns$}}{11}}
\newlabel{fig:inversores_q9}{{6}{11}}
\@writefile{lot}{\contentsline {table}{\numberline {1}{\ignorespaces Valores para os tempos de subida e descida dos inversores em picossegundos}}{12}}
\newlabel{tab:delays_inversores}{{1}{12}}
\@writefile{lof}{\contentsline {figure}{\numberline {7}{\ignorespaces Tens\IeC {\~a}o das sinais de entrada e sa\IeC {\'\i }da dos inversores ($V$) com rela\IeC {\c c}\IeC {\~a}o ao tempo ($ns$) com per\IeC {\'\i }odo de $2ns$}}{13}}
\newlabel{fig:inversores_q11}{{7}{13}}
\@writefile{lof}{\contentsline {figure}{\numberline {8}{\ignorespaces Tens\IeC {\~a}o das sinais de entrada e sa\IeC {\'\i }da dos inversores ($V$) com rela\IeC {\c c}\IeC {\~a}o ao tempo ($ns$) utilizando modelo MOS de pior velocidade na simula\IeC {\c c}\IeC {\~a}o e per\IeC {\'\i }odo de $1ns$}}{14}}
\newlabel{fig:ws}{{8}{14}}
\@writefile{lof}{\contentsline {figure}{\numberline {9}{\ignorespaces Tens\IeC {\~a}o das sinais de entrada e sa\IeC {\'\i }da dos inversores ($V$) com rela\IeC {\c c}\IeC {\~a}o ao tempo ($ns$) utilizando modelo MOS de pior pot\IeC {\^e}ncia na simula\IeC {\c c}\IeC {\~a}o e per\IeC {\'\i }odo de $1ns$}}{15}}
\newlabel{fig:wp}{{9}{15}}
\@writefile{lof}{\contentsline {figure}{\numberline {10}{\ignorespaces Esquem\IeC {\'a}tico de uma porta digital NAND}}{16}}
\newlabel{fig:nand}{{10}{16}}
\@writefile{lof}{\contentsline {figure}{\numberline {11}{\ignorespaces Layout da c\IeC {\'e}lula NAND21 \emph  {flatten}}}{17}}
\newlabel{fig:nand21}{{11}{17}}
\@writefile{lof}{\contentsline {figure}{\numberline {12}{\ignorespaces Layout de um inversor CMOS criado com as dimens\IeC {\~o}es calculadas de $W_n = 3 \ensuremath  {\SI@fstyle  {\upmu }}m$ e $W_p = 7.4 \ensuremath  {\SI@fstyle  {\upmu }}m$}}{18}}
\newlabel{fig:layout_inversor_q21}{{12}{18}}
