# Fdb version 3
["pdflatex"] 1434088779 "Relatório Prática 3.tex" "Relatório Prática 3.pdf" "Relatório Prática 3" 1434088783
  "/usr/local/texlive/2014/texmf-dist/tex/context/base/supp-pdf.mkii" 1337017135 71627 94eb9990bed73c364d7f53f960cc8c5b ""
  "/usr/local/texlive/2014/texmf-dist/tex/generic/babel-portuges/portuges.ldf" 1367878976 6605 2bd2937f1ce929b4a1367cc2d320364e ""
  "/usr/local/texlive/2014/texmf-dist/tex/generic/babel/babel.def" 1395780385 49536 e1475dd245ff2196764ba5b91ac63714 ""
  "/usr/local/texlive/2014/texmf-dist/tex/generic/babel/babel.sty" 1395780385 13162 52453613e672419375f5bc44def13451 ""
  "/usr/local/texlive/2014/texmf-dist/tex/generic/ifxetex/ifxetex.sty" 1284331290 1458 43ab4710dc82f3edeabecd0d099626b2 ""
  "/usr/local/texlive/2014/texmf-dist/tex/generic/oberdiek/etexcmds.sty" 1335995445 7612 c47308d923ec19888707b0f1792b326a ""
  "/usr/local/texlive/2014/texmf-dist/tex/generic/oberdiek/ifluatex.sty" 1303254447 7324 11d14f318d865f420e692d4e6c9c18c3 ""
  "/usr/local/texlive/2014/texmf-dist/tex/generic/oberdiek/ifpdf.sty" 1303254447 7140 ece2cc23d9f20e1f53975ac167f42d3e ""
  "/usr/local/texlive/2014/texmf-dist/tex/generic/oberdiek/ifvtex.sty" 1335995445 6797 68c89f65e01894df882dd523d3fc0a8f ""
  "/usr/local/texlive/2014/texmf-dist/tex/generic/oberdiek/infwarerr.sty" 1335995445 8253 3bdedc8409aa5d290a2339be6f09af03 ""
  "/usr/local/texlive/2014/texmf-dist/tex/generic/oberdiek/kvdefinekeys.sty" 1335995445 5152 387d9200f396b498d5fd679ae44ed898 ""
  "/usr/local/texlive/2014/texmf-dist/tex/generic/oberdiek/kvsetkeys.sty" 1335995445 14040 8de9f47fabc4ca3bd69b6d795e32751c ""
  "/usr/local/texlive/2014/texmf-dist/tex/generic/oberdiek/ltxcmds.sty" 1335995445 18425 775b341047ce304520cc7c11ca41392e ""
  "/usr/local/texlive/2014/texmf-dist/tex/generic/oberdiek/pdftexcmds.sty" 1335995445 19987 01cb2f3c1d21e5f05711b7fd50b17f2a ""
  "/usr/local/texlive/2014/texmf-dist/tex/generic/pgf/basiclayer/pgfcore.code.tex" 1288312291 1006 b103be0bfc8c1682ff1fa9760697a329 ""
  "/usr/local/texlive/2014/texmf-dist/tex/generic/pgf/basiclayer/pgfcorearrows.code.tex" 1393459310 42678 ea82fd948b4303ce6a2c8e25d5e8f8aa ""
  "/usr/local/texlive/2014/texmf-dist/tex/generic/pgf/basiclayer/pgfcoreexternal.code.tex" 1393459310 19287 b2041c22301def2360f03c004d16068d ""
  "/usr/local/texlive/2014/texmf-dist/tex/generic/pgf/basiclayer/pgfcoregraphicstate.code.tex" 1393459310 6653 6c617c4a5106d9f40e3d70946ba4e0ac ""
  "/usr/local/texlive/2014/texmf-dist/tex/generic/pgf/basiclayer/pgfcoreimage.code.tex" 1393459310 7041 a891ad72049e17c4e366c40ca37b0ccb ""
  "/usr/local/texlive/2014/texmf-dist/tex/generic/pgf/basiclayer/pgfcorelayers.code.tex" 1393459310 4625 40c07e9f6f2f7c674704b3f2055560ce ""
  "/usr/local/texlive/2014/texmf-dist/tex/generic/pgf/basiclayer/pgfcoreobjects.code.tex" 1203877327 2631 7eefa6cdbefd8d4e2bad7262cf1094cd ""
  "/usr/local/texlive/2014/texmf-dist/tex/generic/pgf/basiclayer/pgfcorepathconstruct.code.tex" 1393459310 43477 81143b33d9ebafdeead07ede13372427 ""
  "/usr/local/texlive/2014/texmf-dist/tex/generic/pgf/basiclayer/pgfcorepathprocessing.code.tex" 1393459310 17436 8d99d4113be311daf23deff86991ee7d ""
  "/usr/local/texlive/2014/texmf-dist/tex/generic/pgf/basiclayer/pgfcorepathusage.code.tex" 1393459310 20857 256da99fc70ea570aad1d50fdfd51464 ""
  "/usr/local/texlive/2014/texmf-dist/tex/generic/pgf/basiclayer/pgfcorepatterns.code.tex" 1393459310 9641 711f0edc22c180a5caf168b6e8970057 ""
  "/usr/local/texlive/2014/texmf-dist/tex/generic/pgf/basiclayer/pgfcorepoints.code.tex" 1393459310 34516 658a71478d21df554bce9d9cd436203a ""
  "/usr/local/texlive/2014/texmf-dist/tex/generic/pgf/basiclayer/pgfcorequick.code.tex" 1288312291 3052 e5672c657232fd63b0a9853b0746297c ""
  "/usr/local/texlive/2014/texmf-dist/tex/generic/pgf/basiclayer/pgfcorescopes.code.tex" 1393459310 16849 86fed972a2b3ad61208a6422e104bf26 ""
  "/usr/local/texlive/2014/texmf-dist/tex/generic/pgf/basiclayer/pgfcoreshade.code.tex" 1393459310 21541 4cd19f8ff7dd74d5aa7d803a6397af84 ""
  "/usr/local/texlive/2014/texmf-dist/tex/generic/pgf/basiclayer/pgfcoretransformations.code.tex" 1393459310 17423 a0f09c822b83b65445bc3ac25542dcc6 ""
  "/usr/local/texlive/2014/texmf-dist/tex/generic/pgf/basiclayer/pgfcoretransparency.code.tex" 1393459310 8943 2e2495b057f8f0035b5568394d489963 ""
  "/usr/local/texlive/2014/texmf-dist/tex/generic/pgf/frontendlayer/tikz/libraries/tikzlibrarycalc.code.tex" 1393459310 15934 b941bd3ae7b33179029513707d1f0ff6 ""
  "/usr/local/texlive/2014/texmf-dist/tex/generic/pgf/frontendlayer/tikz/libraries/tikzlibrarytopaths.code.tex" 1288312291 11599 d694704a88e2f9007c996d3a6a4d629c ""
  "/usr/local/texlive/2014/texmf-dist/tex/generic/pgf/frontendlayer/tikz/tikz.code.tex" 1393459310 175287 31eb66e838dd5e10589736193a31943c ""
  "/usr/local/texlive/2014/texmf-dist/tex/generic/pgf/libraries/decorations/pgflibrarydecorations.pathmorphing.code.tex" 1288312291 8854 7be3c3b9eb0de90885a881085ce8e118 ""
  "/usr/local/texlive/2014/texmf-dist/tex/generic/pgf/libraries/pgflibraryarrows.code.tex" 1393459310 31927 7acd27f90dd95ce67ad32166cd0b95ec ""
  "/usr/local/texlive/2014/texmf-dist/tex/generic/pgf/libraries/pgflibraryplothandlers.code.tex" 1393459310 32969 dbcfd5a7de6a0f7255c333ef60287d59 ""
  "/usr/local/texlive/2014/texmf-dist/tex/generic/pgf/math/pgfmath.code.tex" 1393459310 454 9e9e7c99f4da4f41698be21eaef4938e ""
  "/usr/local/texlive/2014/texmf-dist/tex/generic/pgf/math/pgfmathcalc.code.tex" 1393459310 13416 940ea6971d7a65dc440d3479939c66ae ""
  "/usr/local/texlive/2014/texmf-dist/tex/generic/pgf/math/pgfmathfloat.code.tex" 1393459310 91879 5b3cc8d94c47a5b742393a410f298724 ""
  "/usr/local/texlive/2014/texmf-dist/tex/generic/pgf/math/pgfmathfunctions.base.code.tex" 1393459310 9375 5adc70f722abd29fc250d59e0694b548 ""
  "/usr/local/texlive/2014/texmf-dist/tex/generic/pgf/math/pgfmathfunctions.basic.code.tex" 1393459310 21406 80daebd1f9f6a174d8dc77c5bc931bf4 ""
  "/usr/local/texlive/2014/texmf-dist/tex/generic/pgf/math/pgfmathfunctions.code.tex" 1393459310 7820 5140d142921f39003e02ccedd072823a ""
  "/usr/local/texlive/2014/texmf-dist/tex/generic/pgf/math/pgfmathfunctions.comparison.code.tex" 1288312291 3534 c7f28fbac13616513e513efe93b8569b ""
  "/usr/local/texlive/2014/texmf-dist/tex/generic/pgf/math/pgfmathfunctions.integerarithmetics.code.tex" 1393459310 3167 7c9394e79aac27db96a92f9b2792b858 ""
  "/usr/local/texlive/2014/texmf-dist/tex/generic/pgf/math/pgfmathfunctions.misc.code.tex" 1393459310 9165 99b6966558714c44c0b5ee44ae261ffc ""
  "/usr/local/texlive/2014/texmf-dist/tex/generic/pgf/math/pgfmathfunctions.random.code.tex" 1288312291 6964 d4b5e82dabddda1c728063bb9c8a22ba ""
  "/usr/local/texlive/2014/texmf-dist/tex/generic/pgf/math/pgfmathfunctions.round.code.tex" 1288312291 2688 139c6abc86761a6190c2f4bef5d752be ""
  "/usr/local/texlive/2014/texmf-dist/tex/generic/pgf/math/pgfmathfunctions.trigonometric.code.tex" 1393459310 91075 1c1d7a7e8f0f737f72aa8becf0b37136 ""
  "/usr/local/texlive/2014/texmf-dist/tex/generic/pgf/math/pgfmathparser.code.tex" 1393459310 33289 b041d55e91f7382603e2dca6f9ad188d ""
  "/usr/local/texlive/2014/texmf-dist/tex/generic/pgf/math/pgfmathutil.code.tex" 1393459310 7099 f44d505bae6c7c2b933cdd63441db4b9 ""
  "/usr/local/texlive/2014/texmf-dist/tex/generic/pgf/modules/pgfmoduledecorations.code.tex" 1393459310 71902 658cc1e13f73daec4225b8fc1c27600b ""
  "/usr/local/texlive/2014/texmf-dist/tex/generic/pgf/modules/pgfmodulematrix.code.tex" 1393459310 20934 2328bd2e04520e1ab077ac4ee13b8935 ""
  "/usr/local/texlive/2014/texmf-dist/tex/generic/pgf/modules/pgfmoduleplot.code.tex" 1393459310 15785 e0b14c447df00370d2023fd5c9813190 ""
  "/usr/local/texlive/2014/texmf-dist/tex/generic/pgf/modules/pgfmoduleshapes.code.tex" 1393459310 42336 b13cf09dc317c76a2b165a8501d871cf ""
  "/usr/local/texlive/2014/texmf-dist/tex/generic/pgf/systemlayer/pgf.cfg" 1288312291 978 15af626ebd3d4d790aac19170dac04f2 ""
  "/usr/local/texlive/2014/texmf-dist/tex/generic/pgf/systemlayer/pgfsys-common-pdf.def" 1393459310 5437 d91f93ed61ecdc57e119849b2d784a0b ""
  "/usr/local/texlive/2014/texmf-dist/tex/generic/pgf/systemlayer/pgfsys-pdftex.def" 1393459310 11969 518d66d5b5e20471ba00709ef9c2b267 ""
  "/usr/local/texlive/2014/texmf-dist/tex/generic/pgf/systemlayer/pgfsys.code.tex" 1393459310 34488 3bab2022cdd1acab0cd383d8a0ad641b ""
  "/usr/local/texlive/2014/texmf-dist/tex/generic/pgf/systemlayer/pgfsysprotocol.code.tex" 1203877327 1983 b5994ebbcee17f1ba3d29bb1bd696fcf ""
  "/usr/local/texlive/2014/texmf-dist/tex/generic/pgf/systemlayer/pgfsyssoftpath.code.tex" 1393459310 7881 d459d6057e13d10ce7a227ae44b7295e ""
  "/usr/local/texlive/2014/texmf-dist/tex/generic/pgf/utilities/pgffor.code.tex" 1393459310 22211 d696ef78c12269178882d218b2cf191d ""
  "/usr/local/texlive/2014/texmf-dist/tex/generic/pgf/utilities/pgfkeys.code.tex" 1393459310 36194 e194ef4e0b396b531a3891feb4b1cc22 ""
  "/usr/local/texlive/2014/texmf-dist/tex/generic/pgf/utilities/pgfkeysfiltered.code.tex" 1393459310 33377 af391d6ad1bfcbe2278e191f48e43ba8 ""
  "/usr/local/texlive/2014/texmf-dist/tex/generic/pgf/utilities/pgfrcs.code.tex" 1393459310 2286 b5c392d27790ca52b8f8e510ef5044e0 ""
  "/usr/local/texlive/2014/texmf-dist/tex/generic/pgf/utilities/pgfutil-common-lists.tex" 1393459310 6833 114eda2cf1d348e0e7e477a1a4dc1941 ""
  "/usr/local/texlive/2014/texmf-dist/tex/generic/pgf/utilities/pgfutil-common.tex" 1393459310 16384 3fa06861c9a3391a75df39466f49655f ""
  "/usr/local/texlive/2014/texmf-dist/tex/generic/pgf/utilities/pgfutil-latex.def" 1393459310 4500 b148f531c7670d59c695787be06a508b ""
  "/usr/local/texlive/2014/texmf-dist/tex/generic/xkeyval/xkeyval.tex" 1400019268 25272 8b573a5710283cab74b7f6c5ec6592ec ""
  "/usr/local/texlive/2014/texmf-dist/tex/latex/SIunits/SIunits.cfg" 1137109856 1339 e1c35ec7ca1a5a17ac67ecbdabb6990b ""
  "/usr/local/texlive/2014/texmf-dist/tex/latex/SIunits/SIunits.sty" 1196611627 24315 d4b7c746aadbeeadad3d915d486cc1b1 ""
  "/usr/local/texlive/2014/texmf-dist/tex/latex/adjustbox/adjcalc.sty" 1337209790 5413 28ccf87dc7aa0cb642dca714a24a0e0e ""
  "/usr/local/texlive/2014/texmf-dist/tex/latex/adjustbox/adjustbox.sty" 1337644619 34406 e1a62300781a9f8a5ca0a38d16b34d67 ""
  "/usr/local/texlive/2014/texmf-dist/tex/latex/adjustbox/tc-pdftex.def" 1337209790 1442 51243195f4fdf731a12f15ee33772346 ""
  "/usr/local/texlive/2014/texmf-dist/tex/latex/adjustbox/trimclip.sty" 1337209790 7112 f0440fa8b74253e1bc8b4f4227a9df9d ""
  "/usr/local/texlive/2014/texmf-dist/tex/latex/amscls/amsthm.sty" 1361575838 13294 f63af559496acbb4ffecc2de353745eb ""
  "/usr/local/texlive/2014/texmf-dist/tex/latex/amsfonts/amsfonts.sty" 1359763108 5949 3f3fd50a8cc94c3d4cbf4fc66cd3df1c ""
  "/usr/local/texlive/2014/texmf-dist/tex/latex/amsfonts/amssymb.sty" 1359763108 13829 94730e64147574077f8ecfea9bb69af4 ""
  "/usr/local/texlive/2014/texmf-dist/tex/latex/amsfonts/umsa.fd" 1359763108 961 6518c6525a34feb5e8250ffa91731cff ""
  "/usr/local/texlive/2014/texmf-dist/tex/latex/amsfonts/umsb.fd" 1359763108 961 d02606146ba5601b5645f987c92e6193 ""
  "/usr/local/texlive/2014/texmf-dist/tex/latex/amsmath/amsgen.sty" 1362954379 4357 ad30ad08920902fc9b38caf35a3b0496 ""
  "/usr/local/texlive/2014/texmf-dist/tex/latex/amsmath/amstext.sty" 1362954379 2637 846ebe982d3549c7ede7ce135456f54a ""
  "/usr/local/texlive/2014/texmf-dist/tex/latex/base/article.cls" 1399675188 20496 66dd832c447553f6776fbeac03bb0580 ""
  "/usr/local/texlive/2014/texmf-dist/tex/latex/base/inputenc.sty" 1399675188 5295 be5d5092b838cbeebda7de24a3ab9dd2 ""
  "/usr/local/texlive/2014/texmf-dist/tex/latex/base/makeidx.sty" 1399675188 1728 f2f90080f68302bf47aed45253561afe ""
  "/usr/local/texlive/2014/texmf-dist/tex/latex/base/omscmr.fd" 1399675188 2044 e100908319f12bdc42d217e63116726d ""
  "/usr/local/texlive/2014/texmf-dist/tex/latex/base/omsenc.dfu" 1399675188 1793 7bb4e1cf8d618812dcf05cd85cccb71d ""
  "/usr/local/texlive/2014/texmf-dist/tex/latex/base/ot1enc.dfu" 1399675188 2545 afa23f923cc3519eb0b895cbf3dadfb5 ""
  "/usr/local/texlive/2014/texmf-dist/tex/latex/base/size12.clo" 1399675188 8978 ae5f64dacfe4ff1b713dec8fd98fb590 ""
  "/usr/local/texlive/2014/texmf-dist/tex/latex/base/t1enc.dfu" 1399675188 7405 c70c194719f79b7d070eeb68af109b09 ""
  "/usr/local/texlive/2014/texmf-dist/tex/latex/base/ts1cmr.fd" 1399675188 2005 93bd6bd567069079fb8ff3cfd3ec04bb ""
  "/usr/local/texlive/2014/texmf-dist/tex/latex/base/ts1enc.dfu" 1399675188 4723 23a30984c1e85cd04bc3424da55cd8de ""
  "/usr/local/texlive/2014/texmf-dist/tex/latex/base/utf8.def" 1399675188 6275 ac89e3d1c95578574b0b11f34248899e ""
  "/usr/local/texlive/2014/texmf-dist/tex/latex/circuitikz/circuitikz.code.tex" 1356827911 28945 12935a69416a846e850417aa7f07cd39 ""
  "/usr/local/texlive/2014/texmf-dist/tex/latex/circuitikz/circuitikz.sty" 1356827911 3797 d90b754d65468bea1d12ef5c1fb8e151 ""
  "/usr/local/texlive/2014/texmf-dist/tex/latex/circuitikz/circuitikz1.code.tex" 1356827911 25624 86f31510bcc58fa916d8bba1446de6a4 ""
  "/usr/local/texlive/2014/texmf-dist/tex/latex/circuitikz/pgfcircbipoles.sty" 1356827911 68286 4b713c6d6cebd5672343bd0fc609c338 ""
  "/usr/local/texlive/2014/texmf-dist/tex/latex/circuitikz/pgfcirccurrent.sty" 1259285028 7061 af9f865872435804e3c65158d4de1970 ""
  "/usr/local/texlive/2014/texmf-dist/tex/latex/circuitikz/pgfcirclabel.sty" 1315869211 3620 b9cd3cee1bfcc5a9d8f69ba90f680397 ""
  "/usr/local/texlive/2014/texmf-dist/tex/latex/circuitikz/pgfcircmath.sty" 1315869211 1090 dbe91e30ab3022712bc6cd77aa3584d2 ""
  "/usr/local/texlive/2014/texmf-dist/tex/latex/circuitikz/pgfcircmonopoles.sty" 1356827911 14341 461073e794df48893d564acc8fb7e5fd ""
  "/usr/local/texlive/2014/texmf-dist/tex/latex/circuitikz/pgfcircquadpoles.sty" 1356827911 12290 bd7c63847c031bfc6f93e3ac0c46dd89 ""
  "/usr/local/texlive/2014/texmf-dist/tex/latex/circuitikz/pgfcircshapes.sty" 1315869211 2868 714134d4c0c9aaefe101009317eac060 ""
  "/usr/local/texlive/2014/texmf-dist/tex/latex/circuitikz/pgfcirctripoles.sty" 1356827911 101906 30603ccdde17a17a4afd55eb79142856 ""
  "/usr/local/texlive/2014/texmf-dist/tex/latex/circuitikz/pgfcircutils.sty" 1259285028 1467 40cc6890a1fd64d394d320fb3e050992 ""
  "/usr/local/texlive/2014/texmf-dist/tex/latex/circuitikz/pgfcircvoltage.sty" 1356827911 10483 a9a15a4bdd09a1033276c3735fdabd69 ""
  "/usr/local/texlive/2014/texmf-dist/tex/latex/collectbox/collectbox.sty" 1337644648 9116 495d44b5a3e7be0c46c5d1f053f457f0 ""
  "/usr/local/texlive/2014/texmf-dist/tex/latex/fancyhdr/fancyhdr.sty" 1160175134 20521 e5d13d98d57bd53d4fed3aa61bd29c86 ""
  "/usr/local/texlive/2014/texmf-dist/tex/latex/geometry/geometry.sty" 1284422013 40502 e003406220954b0716679d7928aedd8a ""
  "/usr/local/texlive/2014/texmf-dist/tex/latex/graphics/graphics.sty" 1254151804 14183 42a8fc761b806986eef292369afc2988 ""
  "/usr/local/texlive/2014/texmf-dist/tex/latex/graphics/graphicx.sty" 1399675188 7911 bf0a64f89bfb668c239ddf6324bf4afb ""
  "/usr/local/texlive/2014/texmf-dist/tex/latex/graphics/keyval.sty" 1399675188 2317 0ace13e225e9d95dd9defe947adc9fbb ""
  "/usr/local/texlive/2014/texmf-dist/tex/latex/graphics/trig.sty" 1156702488 3153 c50e6bd54d2dd3933fc52bcf369bec4a ""
  "/usr/local/texlive/2014/texmf-dist/tex/latex/ifoddpage/ifoddpage.sty" 1316197439 1363 ad3d0d4483ff3ebcb79acd04d371b213 ""
  "/usr/local/texlive/2014/texmf-dist/tex/latex/latexconfig/color.cfg" 1254097189 802 7b8c8d72c24d795ed7720e4dfd29bff3 ""
  "/usr/local/texlive/2014/texmf-dist/tex/latex/latexconfig/epstopdf-sys.cfg" 1279039959 678 4792914a8f45be57bb98413425e4c7af ""
  "/usr/local/texlive/2014/texmf-dist/tex/latex/latexconfig/graphics.cfg" 1278958963 3563 d35e897cae3b8c6848f6677b73370b54 ""
  "/usr/local/texlive/2014/texmf-dist/tex/latex/listings/listings.cfg" 1394061314 1828 1429ae58d32ff215bffb2acf697ae41a ""
  "/usr/local/texlive/2014/texmf-dist/tex/latex/listings/listings.sty" 1394061314 80361 048fe35275a1096660ea67eecd2213f4 ""
  "/usr/local/texlive/2014/texmf-dist/tex/latex/listings/lstlang1.sty" 1394061314 93168 df9863fadbf023e458067a158925eff9 ""
  "/usr/local/texlive/2014/texmf-dist/tex/latex/listings/lstmisc.sty" 1394061314 77029 dfe676ac1c76cfa220c8107472a1da27 ""
  "/usr/local/texlive/2014/texmf-dist/tex/latex/lstaddons/lstautogobble.sty" 1336175352 3491 4dc2074b43d50708171c5db5a53b2119 ""
  "/usr/local/texlive/2014/texmf-dist/tex/latex/ms/everyshi.sty" 1177890616 3878 6aa7c08ff2621006e0603349e40a30a8 ""
  "/usr/local/texlive/2014/texmf-dist/tex/latex/oberdiek/epstopdf-base.sty" 1303254447 12029 04d7fdf76e0464c23b5aa3a727952d7c ""
  "/usr/local/texlive/2014/texmf-dist/tex/latex/oberdiek/grfext.sty" 1335995445 7075 bd0c34fbf1ae8fd1debd2a554e41b2d5 ""
  "/usr/local/texlive/2014/texmf-dist/tex/latex/oberdiek/kvoptions.sty" 1335995445 22417 c74ff4af6a1aa2b65d1924020edbbe11 ""
  "/usr/local/texlive/2014/texmf-dist/tex/latex/paralist/paralist.sty" 1372376129 14747 154e41a6d5d746a2b1f2dcbe973ac29b ""
  "/usr/local/texlive/2014/texmf-dist/tex/latex/pdftex-def/pdftex.def" 1306616590 55368 3c8a0d99822330f2dfabc0dfb09ce897 ""
  "/usr/local/texlive/2014/texmf-dist/tex/latex/pgf/basiclayer/pgf.sty" 1393459310 1190 4e20f1d26da9f86ba6a50d7ad16c48d2 ""
  "/usr/local/texlive/2014/texmf-dist/tex/latex/pgf/basiclayer/pgfcore.sty" 1288312291 410 5bf12ea7330e5f12c445332a4fe9a263 ""
  "/usr/local/texlive/2014/texmf-dist/tex/latex/pgf/compatibility/pgfcomp-version-0-65.sty" 1203877327 21115 facf03b7dbe5ea2f5f1dce1ac84b5d05 ""
  "/usr/local/texlive/2014/texmf-dist/tex/latex/pgf/compatibility/pgfcomp-version-1-18.sty" 1203727794 1091 d9163d29def82ee90370c8a63667742c ""
  "/usr/local/texlive/2014/texmf-dist/tex/latex/pgf/frontendlayer/tikz.sty" 1203877327 339 592cf35cba3d400082b8a9a5d0199d70 ""
  "/usr/local/texlive/2014/texmf-dist/tex/latex/pgf/math/pgfmath.sty" 1393459310 306 0796eafca5e159e6ec2167a6d22d81b1 ""
  "/usr/local/texlive/2014/texmf-dist/tex/latex/pgf/systemlayer/pgfsys.sty" 1393459310 443 0b2e781830192df35c0fd357cf13e26e ""
  "/usr/local/texlive/2014/texmf-dist/tex/latex/pgf/utilities/pgffor.sty" 1393459310 348 8927fde343487e003b01a4c2ca34073b ""
  "/usr/local/texlive/2014/texmf-dist/tex/latex/pgf/utilities/pgfkeys.sty" 1203727794 274 4cad6e665cc93ac2ac979039a94fa1e1 ""
  "/usr/local/texlive/2014/texmf-dist/tex/latex/pgf/utilities/pgfrcs.sty" 1203877327 325 2bcd023400636339210573e2b3ee298b ""
  "/usr/local/texlive/2014/texmf-dist/tex/latex/placeins/placeins.sty" 1137110565 4087 636308456f60d2b31cbf97867db5708d ""
  "/usr/local/texlive/2014/texmf-dist/tex/latex/tools/array.sty" 1399675188 13073 a6e28ede26c83d406e124b12f368174f ""
  "/usr/local/texlive/2014/texmf-dist/tex/latex/tools/enumerate.sty" 1399675188 3255 42d834dc82171769c16badd22df87021 ""
  "/usr/local/texlive/2014/texmf-dist/tex/latex/varwidth/varwidth.sty" 1238697683 10894 d359a13923460b2a73d4312d613554c8 ""
  "/usr/local/texlive/2014/texmf-dist/tex/latex/wrapfig/wrapfig.sty" 1137111090 26220 3701aebf80ccdef248c0c20dd062fea9 ""
  "/usr/local/texlive/2014/texmf-dist/tex/latex/xcolor/xcolor.sty" 1169481954 55224 a43bab84e0ac5e6efcaf9a98bde73a94 ""
  "/usr/local/texlive/2014/texmf-dist/tex/latex/xkeyval/xkeyval.sty" 1400019268 4934 883d3037a740b7daa7022577730aa1f8 ""
  "Relatório Prática 3.aux" 1434088783 3582 c03b55ca90fa7cc97fd16ffde242fc61 ""
  "Relatório Prática 3.lof" 1434088783 2334 6b8013f848d369c5cc9916a329cf36f5 ""
  "Relatório Prática 3.lot" 1434088783 162 af37d1798071d3c1196e684abdf21652 ""
  "Relatório Prática 3.tex" 1434088779 35467 f192f504d2e2c4e180c4ff67b694b35b ""
  "Relatório Prática 3.toc" 1434088783 153 7024e4848ce6090419187f8cd50df8ee ""
  "images/logo_eesc.png" 1429548121 252609 70cf70280f1b2e91e000ac0d2cf834a1 ""
  "images/q11.jpg" 1432750232 346084 51bedb9fcc4ad1a532c8ed524394f5aa ""
  "images/q20.png" 1433297680 183779 dbffa53c4a8bcf0059ff49a8251524e5 ""
  "images/q21.png" 1433357009 319190 17fed67a611e5767fa0e76422d55f256 ""
  "images/q4.jpg" 1433348618 114543 583ab956a1812c52c04c36898655eb5d ""
  "images/q6.jpg" 1432146660 128902 0813e092fd2d87937ca5ed73fccff43c ""
  "images/q9.jpg" 1432749452 344781 bd2b84df1f2d7664107cd63f638e8c57 ""
  "images/wp.jpg" 1432752190 343016 d79cc5adaedaaffa27bb108e9e4deee2 ""
  "images/ws.jpg" 1432752176 334385 1be6b54bc15b8d2a574adde1fd8405e6 ""
  (generated)
  "Relatório Prática 3.log"
  "Relatório Prática 3.lof"
  "Relatório Prática 3.aux"
  "Relatório Prática 3.lot"
  "Relatório Prática 3.pdf"
  "Relatório Prática 3.toc"
