
Running eldo v6.6_1.1 on ec-102v2-01

with Eldo libraries :
/local/tools/anacad/eldo/v6.6_1.1/x86_64/os2.6/libeldoudm_64.so
/local/tools/anacad/eldo/v6.6_1.1/x86_64/os2.6/libeldomos1_64.so
/local/tools/anacad/eldo/v6.6_1.1/x86_64/os2.6/libeldoekv_64.so
/local/tools/anacad/eldo/v6.6_1.1/x86_64/os2.6/libeldomosp9_64.so
/local/tools/anacad/eldo/v6.6_1.1/x86_64/os2.6/libeldocsem_64.so
/local/tools/anacad/eldo/v6.6_1.1/x86_64/os2.6/libeldomos2_64.so
/local/tools/anacad/eldo/v6.6_1.1/x86_64/os2.6/libeldomos3_64.so
/local/tools/anacad/eldo/v6.6_1.1/x86_64/os2.6/libeldobip_64.so
/local/tools/anacad/eldo/v6.6_1.1/x86_64/os2.6/libeldodio_64.so
/local/tools/anacad/eldo/v6.6_1.1/x86_64/os2.6/libeldojfet_64.so
/local/tools/anacad/eldo/v6.6_1.1/x86_64/os2.6/libeldosoi_64.so
/local/tools/anacad/eldo/v6.6_1.1/x86_64/os2.6/libeldomos4_64.so
/local/tools/anacad/eldo/v6.6_1.1/x86_64/os2.6/libeldoasitft_64.so
/local/tools/anacad/eldo/v6.6_1.1/x86_64/os2.6/libeldohisim_64.so
/local/tools/anacad/eldo/v6.6_1.1/x86_64/os2.6/libeldospmod_64.so
/local/tools/anacad/eldo/v6.6_1.1/x86_64/os2.6/libeldopsp_64.so
/local/tools/anacad/eldo/v6.6_1.1/x86_64/os2.6/libeldomoto_64.so
/local/tools/anacad/eldo/v6.6_1.1/x86_64/os2.6/libeldost_64.so
/local/tools/anacad/eldo/v6.6_1.1/x86_64/os2.6/libeldobnr_64.so
/local/tools/anacad/eldo/v6.6_1.1/x86_64/os2.6/libeldorockw_64.so
/local/tools/anacad/eldo/v6.6_1.1/x86_64/os2.6/libeldopubhicum_64.so
/local/tools/anacad/eldo/v6.6_1.1/x86_64/os2.6/libeldotftsh_64.so
/local/tools/anacad/eldo/v6.6_1.1/x86_64/os2.6/libeldobta_64.so
/local/tools/anacad/eldo/v6.6_1.1/x86_64/os2.6/libeldofas_64.so
/local/tools/anacad/eldo/v6.6_1.1/x86_64/os2.6/libeldofascm_64.so
/local/tools/anacad/eldo/v6.6_1.1/x86_64/os2.6/libeldova_64.so
/local/tools/anacad/eldo/v6.6_1.1/x86_64/os2.6/libeldovafnc_64.so
/local/tools/anacad/eldo/v6.6_1.1/x86_64/os2.6/libeldosdsim_64.so
/local/tools/anacad/eldo/v6.6_1.1/x86_64/os2.6/libeldoudrm_64.so
/local/tools/anacad/eldo/v6.6_1.1/x86_64/os2.6/libeldowire_64.so



              Software under License 
       Copyright Mentor Graphics Corporation




***** ANALYSIS ....


***** 0  error(s). 
***** 0  warning(s). 



***** GENERATION ...


***** 0  error(s). 
***** 0  warning(s). 


INFORMATION ABOUT COMPILATION...


Memory space allocated (bytes): 837452
8 elements
5 nodes 
2 input signals


run number 1
 value of parameter for WP2 is 6.000000E-06

Eldo VERSION : ELDO v6.6_1.1 Production(64 bits) Wed Sep 28 08:48:28 GMT 2005

*** DATE: 27-May-2015 15:12:12

*** TITLE: * --------------------------- Parameters ---------------------------

TEMPERATURE : 27.000000 degrees C


Performing DC analysis...

--> Partitioning circuit...

***> DC CPU TIME 0s 000ms <***

DC:1 iterations FOR DC analysis
A            3.0000E+00
B            1.8504E-09
VDD          3.0000E+00
VIN          0.0       
VOUT         3.0000E+00

   TOTAL POWER DISSIPATION:  2.8437E-11 WATTS

Connecting to JWDB server, please wait...
connected to wdb server : -jwdbhost ec-102v2-01 -jwdbport 54044


Eldo NEWTON: VNTOL=1.000000e-06 RELTOL=7.500000e-04

Compute from 0.000000 Nano to 5.000000 Nano
................................................
Simulation progress           : 10%
Elapsed CPU time              : 0h 0mn 0s 10
................................................
Simulation progress           : 20%
Elapsed CPU time              : 0h 0mn 0s 20
................................................
Simulation progress           : 30%
Elapsed CPU time              : 0h 0mn 0s 30
................................................
Simulation progress           : 40%
Elapsed CPU time              : 0h 0mn 0s 50
................................................
Simulation progress           : 50%
Elapsed CPU time              : 0h 0mn 0s 60
................................................
Simulation progress           : 60%
Elapsed CPU time              : 0h 0mn 0s 70
................................................
Simulation progress           : 70%
Elapsed CPU time              : 0h 0mn 0s 90
................................................
Simulation progress           : 80%
Elapsed CPU time              : 0h 0mn 0s 100
................................................
Simulation progress           : 90%
Elapsed CPU time              : 0h 0mn 0s 110
................................................
Simulation progress           : 100%
Elapsed CPU time              : 0h 0mn 0s 130


***>Current simulation completed


 DELAY_FALL  =  6.0267E-11   
 DELAY_RISE  =  7.0088E-11   



***>CPU TIME 0s 130ms <***



run number 2
 value of parameter for WP2 is 6.100000E-06

Eldo VERSION : ELDO v6.6_1.1 Production(64 bits) Wed Sep 28 08:48:28 GMT 2005

*** DATE: 27-May-2015 15:12:12

*** TITLE: * --------------------------- Parameters ---------------------------

TEMPERATURE : 27.000000 degrees C


Performing DC analysis...

--> Partitioning circuit...

***> DC CPU TIME 0s 000ms <***

DC:1 iterations FOR DC analysis
A            3.0000E+00
B            1.8509E-09
VDD          3.0000E+00
VIN          0.0       
VOUT         3.0000E+00

   TOTAL POWER DISSIPATION:  2.8439E-11 WATTS


Eldo NEWTON: VNTOL=1.000000e-06 RELTOL=7.500000e-04

Compute from 0.000000 Nano to 5.000000 Nano
................................................
Simulation progress           : 10%
Elapsed CPU time              : 0h 0mn 0s 10
................................................
Simulation progress           : 20%
Elapsed CPU time              : 0h 0mn 0s 20
................................................
Simulation progress           : 30%
Elapsed CPU time              : 0h 0mn 0s 40
................................................
Simulation progress           : 40%
Elapsed CPU time              : 0h 0mn 0s 50
................................................
Simulation progress           : 50%
Elapsed CPU time              : 0h 0mn 0s 60
................................................
Simulation progress           : 60%
Elapsed CPU time              : 0h 0mn 0s 80
................................................
Simulation progress           : 70%
Elapsed CPU time              : 0h 0mn 0s 90
................................................
Simulation progress           : 80%
Elapsed CPU time              : 0h 0mn 0s 100
................................................
Simulation progress           : 90%
Elapsed CPU time              : 0h 0mn 0s 110
................................................
Simulation progress           : 100%
Elapsed CPU time              : 0h 0mn 0s 120


***>Current simulation completed


 DELAY_FALL  =  6.0488E-11   
 DELAY_RISE  =  6.9358E-11   



***>CPU TIME 0s 120ms <***



run number 3
 value of parameter for WP2 is 6.200000E-06

Eldo VERSION : ELDO v6.6_1.1 Production(64 bits) Wed Sep 28 08:48:28 GMT 2005

*** DATE: 27-May-2015 15:12:12

*** TITLE: * --------------------------- Parameters ---------------------------

TEMPERATURE : 27.000000 degrees C


Performing DC analysis...

--> Partitioning circuit...

***> DC CPU TIME 0s 000ms <***

DC:1 iterations FOR DC analysis
A            3.0000E+00
B            1.8515E-09
VDD          3.0000E+00
VIN          0.0       
VOUT         3.0000E+00

   TOTAL POWER DISSIPATION:  2.8442E-11 WATTS


Eldo NEWTON: VNTOL=1.000000e-06 RELTOL=7.500000e-04

Compute from 0.000000 Nano to 5.000000 Nano
................................................
Simulation progress           : 10%
Elapsed CPU time              : 0h 0mn 0s 20
................................................
Simulation progress           : 20%
Elapsed CPU time              : 0h 0mn 0s 30
................................................
Simulation progress           : 30%
Elapsed CPU time              : 0h 0mn 0s 40
................................................
Simulation progress           : 40%
Elapsed CPU time              : 0h 0mn 0s 60
................................................
Simulation progress           : 50%
Elapsed CPU time              : 0h 0mn 0s 70
................................................
Simulation progress           : 60%
Elapsed CPU time              : 0h 0mn 0s 80
................................................
Simulation progress           : 70%
Elapsed CPU time              : 0h 0mn 0s 90
................................................
Simulation progress           : 80%
Elapsed CPU time              : 0h 0mn 0s 100
................................................
Simulation progress           : 90%
Elapsed CPU time              : 0h 0mn 0s 120
................................................
Simulation progress           : 100%
Elapsed CPU time              : 0h 0mn 0s 130


***>Current simulation completed


 DELAY_FALL  =  6.0707E-11   
 DELAY_RISE  =  6.8654E-11   



***>CPU TIME 0s 130ms <***



run number 4
 value of parameter for WP2 is 6.300000E-06

Eldo VERSION : ELDO v6.6_1.1 Production(64 bits) Wed Sep 28 08:48:28 GMT 2005

*** DATE: 27-May-2015 15:12:12

*** TITLE: * --------------------------- Parameters ---------------------------

TEMPERATURE : 27.000000 degrees C


Performing DC analysis...

--> Partitioning circuit...

***> DC CPU TIME 0s 000ms <***

DC:1 iterations FOR DC analysis
A            3.0000E+00
B            1.8520E-09
VDD          3.0000E+00
VIN          0.0       
VOUT         3.0000E+00

   TOTAL POWER DISSIPATION:  2.8445E-11 WATTS


Eldo NEWTON: VNTOL=1.000000e-06 RELTOL=7.500000e-04

Compute from 0.000000 Nano to 5.000000 Nano
................................................
Simulation progress           : 10%
Elapsed CPU time              : 0h 0mn 0s 10
................................................
Simulation progress           : 20%
Elapsed CPU time              : 0h 0mn 0s 20
................................................
Simulation progress           : 30%
Elapsed CPU time              : 0h 0mn 0s 30
................................................
Simulation progress           : 40%
Elapsed CPU time              : 0h 0mn 0s 50
................................................
Simulation progress           : 50%
Elapsed CPU time              : 0h 0mn 0s 60
................................................
Simulation progress           : 60%
Elapsed CPU time              : 0h 0mn 0s 70
................................................
Simulation progress           : 70%
Elapsed CPU time              : 0h 0mn 0s 80
................................................
Simulation progress           : 80%
Elapsed CPU time              : 0h 0mn 0s 90
................................................
Simulation progress           : 90%
Elapsed CPU time              : 0h 0mn 0s 100
................................................
Simulation progress           : 100%
Elapsed CPU time              : 0h 0mn 0s 110


***>Current simulation completed


 DELAY_FALL  =  6.0925E-11   
 DELAY_RISE  =  6.7971E-11   



***>CPU TIME 0s 110ms <***



run number 5
 value of parameter for WP2 is 6.400000E-06

Eldo VERSION : ELDO v6.6_1.1 Production(64 bits) Wed Sep 28 08:48:28 GMT 2005

*** DATE: 27-May-2015 15:12:12

*** TITLE: * --------------------------- Parameters ---------------------------

TEMPERATURE : 27.000000 degrees C


Performing DC analysis...

--> Partitioning circuit...

***> DC CPU TIME 0s 000ms <***

DC:1 iterations FOR DC analysis
A            3.0000E+00
B            1.8526E-09
VDD          3.0000E+00
VIN          0.0       
VOUT         3.0000E+00

   TOTAL POWER DISSIPATION:  2.8447E-11 WATTS


Eldo NEWTON: VNTOL=1.000000e-06 RELTOL=7.500000e-04

Compute from 0.000000 Nano to 5.000000 Nano
................................................
Simulation progress           : 10%
Elapsed CPU time              : 0h 0mn 0s 20
................................................
Simulation progress           : 20%
Elapsed CPU time              : 0h 0mn 0s 30
................................................
Simulation progress           : 30%
Elapsed CPU time              : 0h 0mn 0s 40
................................................
Simulation progress           : 40%
Elapsed CPU time              : 0h 0mn 0s 50
................................................
Simulation progress           : 50%
Elapsed CPU time              : 0h 0mn 0s 60
................................................
Simulation progress           : 60%
Elapsed CPU time              : 0h 0mn 0s 80
................................................
Simulation progress           : 70%
Elapsed CPU time              : 0h 0mn 0s 90
................................................
Simulation progress           : 80%
Elapsed CPU time              : 0h 0mn 0s 100
................................................
Simulation progress           : 90%
Elapsed CPU time              : 0h 0mn 0s 120
................................................
Simulation progress           : 100%
Elapsed CPU time              : 0h 0mn 0s 130


***>Current simulation completed


 DELAY_FALL  =  6.1141E-11   
 DELAY_RISE  =  6.7311E-11   



***>CPU TIME 0s 130ms <***



run number 6
 value of parameter for WP2 is 6.500000E-06

Eldo VERSION : ELDO v6.6_1.1 Production(64 bits) Wed Sep 28 08:48:28 GMT 2005

*** DATE: 27-May-2015 15:12:13

*** TITLE: * --------------------------- Parameters ---------------------------

TEMPERATURE : 27.000000 degrees C


Performing DC analysis...

--> Partitioning circuit...

***> DC CPU TIME 0s 000ms <***

DC:1 iterations FOR DC analysis
A            3.0000E+00
B            1.8531E-09
VDD          3.0000E+00
VIN          0.0       
VOUT         3.0000E+00

   TOTAL POWER DISSIPATION:  2.8450E-11 WATTS


Eldo NEWTON: VNTOL=1.000000e-06 RELTOL=7.500000e-04

Compute from 0.000000 Nano to 5.000000 Nano
................................................
Simulation progress           : 10%
Elapsed CPU time              : 0h 0mn 0s 10
................................................
Simulation progress           : 20%
Elapsed CPU time              : 0h 0mn 0s 20
................................................
Simulation progress           : 30%
Elapsed CPU time              : 0h 0mn 0s 30
................................................
Simulation progress           : 40%
Elapsed CPU time              : 0h 0mn 0s 50
................................................
Simulation progress           : 50%
Elapsed CPU time              : 0h 0mn 0s 60
................................................
Simulation progress           : 60%
Elapsed CPU time              : 0h 0mn 0s 70
................................................
Simulation progress           : 70%
Elapsed CPU time              : 0h 0mn 0s 80
................................................
Simulation progress           : 80%
Elapsed CPU time              : 0h 0mn 0s 90
................................................
Simulation progress           : 90%
Elapsed CPU time              : 0h 0mn 0s 100
................................................
Simulation progress           : 100%
Elapsed CPU time              : 0h 0mn 0s 110


***>Current simulation completed


 DELAY_FALL  =  6.1356E-11   
 DELAY_RISE  =  6.6670E-11   



***>CPU TIME 0s 110ms <***



run number 7
 value of parameter for WP2 is 6.600000E-06

Eldo VERSION : ELDO v6.6_1.1 Production(64 bits) Wed Sep 28 08:48:28 GMT 2005

*** DATE: 27-May-2015 15:12:13

*** TITLE: * --------------------------- Parameters ---------------------------

TEMPERATURE : 27.000000 degrees C


Performing DC analysis...

--> Partitioning circuit...

***> DC CPU TIME 0s 000ms <***

DC:1 iterations FOR DC analysis
A            3.0000E+00
B            1.8537E-09
VDD          3.0000E+00
VIN          0.0       
VOUT         3.0000E+00

   TOTAL POWER DISSIPATION:  2.8453E-11 WATTS


Eldo NEWTON: VNTOL=1.000000e-06 RELTOL=7.500000e-04

Compute from 0.000000 Nano to 5.000000 Nano
................................................
Simulation progress           : 10%
Elapsed CPU time              : 0h 0mn 0s 20
................................................
Simulation progress           : 20%
Elapsed CPU time              : 0h 0mn 0s 30
................................................
Simulation progress           : 30%
Elapsed CPU time              : 0h 0mn 0s 50
................................................
Simulation progress           : 40%
Elapsed CPU time              : 0h 0mn 0s 60
................................................
Simulation progress           : 50%
Elapsed CPU time              : 0h 0mn 0s 70
................................................
Simulation progress           : 60%
Elapsed CPU time              : 0h 0mn 0s 80
................................................
Simulation progress           : 70%
Elapsed CPU time              : 0h 0mn 0s 100
................................................
Simulation progress           : 80%
Elapsed CPU time              : 0h 0mn 0s 110
................................................
Simulation progress           : 90%
Elapsed CPU time              : 0h 0mn 0s 120
................................................
Simulation progress           : 100%
Elapsed CPU time              : 0h 0mn 0s 130


***>Current simulation completed


 DELAY_FALL  =  6.1570E-11   
 DELAY_RISE  =  6.6049E-11   



***>CPU TIME 0s 130ms <***



run number 8
 value of parameter for WP2 is 6.700000E-06

Eldo VERSION : ELDO v6.6_1.1 Production(64 bits) Wed Sep 28 08:48:28 GMT 2005

*** DATE: 27-May-2015 15:12:13

*** TITLE: * --------------------------- Parameters ---------------------------

TEMPERATURE : 27.000000 degrees C


Performing DC analysis...

--> Partitioning circuit...

***> DC CPU TIME 0s 000ms <***

DC:1 iterations FOR DC analysis
A            3.0000E+00
B            1.8542E-09
VDD          3.0000E+00
VIN          0.0       
VOUT         3.0000E+00

   TOTAL POWER DISSIPATION:  2.8456E-11 WATTS


Eldo NEWTON: VNTOL=1.000000e-06 RELTOL=7.500000e-04

Compute from 0.000000 Nano to 5.000000 Nano
................................................
Simulation progress           : 10%
Elapsed CPU time              : 0h 0mn 0s 10
................................................
Simulation progress           : 20%
Elapsed CPU time              : 0h 0mn 0s 30
................................................
Simulation progress           : 30%
Elapsed CPU time              : 0h 0mn 0s 40
................................................
Simulation progress           : 40%
Elapsed CPU time              : 0h 0mn 0s 50
................................................
Simulation progress           : 50%
Elapsed CPU time              : 0h 0mn 0s 60
................................................
Simulation progress           : 60%
Elapsed CPU time              : 0h 0mn 0s 70
................................................
Simulation progress           : 70%
Elapsed CPU time              : 0h 0mn 0s 80
................................................
Simulation progress           : 80%
Elapsed CPU time              : 0h 0mn 0s 90
................................................
Simulation progress           : 90%
Elapsed CPU time              : 0h 0mn 0s 100
................................................
Simulation progress           : 100%
Elapsed CPU time              : 0h 0mn 0s 110


***>Current simulation completed


 DELAY_FALL  =  6.1784E-11   
 DELAY_RISE  =  6.5446E-11   



***>CPU TIME 0s 110ms <***



run number 9
 value of parameter for WP2 is 6.800000E-06

Eldo VERSION : ELDO v6.6_1.1 Production(64 bits) Wed Sep 28 08:48:28 GMT 2005

*** DATE: 27-May-2015 15:12:13

*** TITLE: * --------------------------- Parameters ---------------------------

TEMPERATURE : 27.000000 degrees C


Performing DC analysis...

--> Partitioning circuit...

***> DC CPU TIME 0s 000ms <***

DC:1 iterations FOR DC analysis
A            3.0000E+00
B            1.8548E-09
VDD          3.0000E+00
VIN          0.0       
VOUT         3.0000E+00

   TOTAL POWER DISSIPATION:  2.8458E-11 WATTS


Eldo NEWTON: VNTOL=1.000000e-06 RELTOL=7.500000e-04

Compute from 0.000000 Nano to 5.000000 Nano
................................................
Simulation progress           : 10%
Elapsed CPU time              : 0h 0mn 0s 20
................................................
Simulation progress           : 20%
Elapsed CPU time              : 0h 0mn 0s 30
................................................
Simulation progress           : 30%
Elapsed CPU time              : 0h 0mn 0s 40
................................................
Simulation progress           : 40%
Elapsed CPU time              : 0h 0mn 0s 50
................................................
Simulation progress           : 50%
Elapsed CPU time              : 0h 0mn 0s 60
................................................
Simulation progress           : 60%
Elapsed CPU time              : 0h 0mn 0s 80
................................................
Simulation progress           : 70%
Elapsed CPU time              : 0h 0mn 0s 90
................................................
Simulation progress           : 80%
Elapsed CPU time              : 0h 0mn 0s 100
................................................
Simulation progress           : 90%
Elapsed CPU time              : 0h 0mn 0s 120
................................................
Simulation progress           : 100%
Elapsed CPU time              : 0h 0mn 0s 130


***>Current simulation completed


 DELAY_FALL  =  6.1997E-11   
 DELAY_RISE  =  6.4862E-11   



***>CPU TIME 0s 130ms <***



run number 10
 value of parameter for WP2 is 6.900000E-06

Eldo VERSION : ELDO v6.6_1.1 Production(64 bits) Wed Sep 28 08:48:28 GMT 2005

*** DATE: 27-May-2015 15:12:13

*** TITLE: * --------------------------- Parameters ---------------------------

TEMPERATURE : 27.000000 degrees C


Performing DC analysis...

--> Partitioning circuit...

***> DC CPU TIME 0s 000ms <***

DC:1 iterations FOR DC analysis
A            3.0000E+00
B            1.8554E-09
VDD          3.0000E+00
VIN          0.0       
VOUT         3.0000E+00

   TOTAL POWER DISSIPATION:  2.8461E-11 WATTS


Eldo NEWTON: VNTOL=1.000000e-06 RELTOL=7.500000e-04

Compute from 0.000000 Nano to 5.000000 Nano
................................................
Simulation progress           : 10%
Elapsed CPU time              : 0h 0mn 0s 10
................................................
Simulation progress           : 20%
Elapsed CPU time              : 0h 0mn 0s 20
................................................
Simulation progress           : 30%
Elapsed CPU time              : 0h 0mn 0s 30
................................................
Simulation progress           : 40%
Elapsed CPU time              : 0h 0mn 0s 50
................................................
Simulation progress           : 50%
Elapsed CPU time              : 0h 0mn 0s 60
................................................
Simulation progress           : 60%
Elapsed CPU time              : 0h 0mn 0s 70
................................................
Simulation progress           : 70%
Elapsed CPU time              : 0h 0mn 0s 80
................................................
Simulation progress           : 80%
Elapsed CPU time              : 0h 0mn 0s 90
................................................
Simulation progress           : 90%
Elapsed CPU time              : 0h 0mn 0s 110
................................................
Simulation progress           : 100%
Elapsed CPU time              : 0h 0mn 0s 120


***>Current simulation completed


 DELAY_FALL  =  6.2210E-11   
 DELAY_RISE  =  6.4293E-11   



***>CPU TIME 0s 120ms <***



run number 11
 value of parameter for WP2 is 7.000000E-06

Eldo VERSION : ELDO v6.6_1.1 Production(64 bits) Wed Sep 28 08:48:28 GMT 2005

*** DATE: 27-May-2015 15:12:13

*** TITLE: * --------------------------- Parameters ---------------------------

TEMPERATURE : 27.000000 degrees C


Performing DC analysis...

--> Partitioning circuit...

***> DC CPU TIME 0s 000ms <***

DC:1 iterations FOR DC analysis
A            3.0000E+00
B            1.8559E-09
VDD          3.0000E+00
VIN          0.0       
VOUT         3.0000E+00

   TOTAL POWER DISSIPATION:  2.8464E-11 WATTS


Eldo NEWTON: VNTOL=1.000000e-06 RELTOL=7.500000e-04

Compute from 0.000000 Nano to 5.000000 Nano
................................................
Simulation progress           : 10%
Elapsed CPU time              : 0h 0mn 0s 10
................................................
Simulation progress           : 20%
Elapsed CPU time              : 0h 0mn 0s 20
................................................
Simulation progress           : 30%
Elapsed CPU time              : 0h 0mn 0s 30
................................................
Simulation progress           : 40%
Elapsed CPU time              : 0h 0mn 0s 40
................................................
Simulation progress           : 50%
Elapsed CPU time              : 0h 0mn 0s 50
................................................
Simulation progress           : 60%
Elapsed CPU time              : 0h 0mn 0s 70
................................................
Simulation progress           : 70%
Elapsed CPU time              : 0h 0mn 0s 80
................................................
Simulation progress           : 80%
Elapsed CPU time              : 0h 0mn 0s 90
................................................
Simulation progress           : 90%
Elapsed CPU time              : 0h 0mn 0s 100
................................................
Simulation progress           : 100%
Elapsed CPU time              : 0h 0mn 0s 110


***>Current simulation completed


 DELAY_FALL  =  6.2418E-11   
 DELAY_RISE  =  6.3743E-11   



***>CPU TIME 0s 110ms <***



run number 12
 value of parameter for WP2 is 7.100000E-06

Eldo VERSION : ELDO v6.6_1.1 Production(64 bits) Wed Sep 28 08:48:28 GMT 2005

*** DATE: 27-May-2015 15:12:13

*** TITLE: * --------------------------- Parameters ---------------------------

TEMPERATURE : 27.000000 degrees C


Performing DC analysis...

--> Partitioning circuit...

***> DC CPU TIME 0s 000ms <***

DC:1 iterations FOR DC analysis
A            3.0000E+00
B            1.8565E-09
VDD          3.0000E+00
VIN          0.0       
VOUT         3.0000E+00

   TOTAL POWER DISSIPATION:  2.8467E-11 WATTS


Eldo NEWTON: VNTOL=1.000000e-06 RELTOL=7.500000e-04

Compute from 0.000000 Nano to 5.000000 Nano
................................................
Simulation progress           : 10%
Elapsed CPU time              : 0h 0mn 0s 20
................................................
Simulation progress           : 20%
Elapsed CPU time              : 0h 0mn 0s 30
................................................
Simulation progress           : 30%
Elapsed CPU time              : 0h 0mn 0s 40
................................................
Simulation progress           : 40%
Elapsed CPU time              : 0h 0mn 0s 60
................................................
Simulation progress           : 50%
Elapsed CPU time              : 0h 0mn 0s 70
................................................
Simulation progress           : 60%
Elapsed CPU time              : 0h 0mn 0s 80
................................................
Simulation progress           : 70%
Elapsed CPU time              : 0h 0mn 0s 90
................................................
Simulation progress           : 80%
Elapsed CPU time              : 0h 0mn 0s 100
................................................
Simulation progress           : 90%
Elapsed CPU time              : 0h 0mn 0s 120
................................................
Simulation progress           : 100%
Elapsed CPU time              : 0h 0mn 0s 130


***>Current simulation completed


 DELAY_FALL  =  6.2626E-11   
 DELAY_RISE  =  6.3206E-11   



***>CPU TIME 0s 130ms <***



run number 13
 value of parameter for WP2 is 7.200000E-06

Eldo VERSION : ELDO v6.6_1.1 Production(64 bits) Wed Sep 28 08:48:28 GMT 2005

*** DATE: 27-May-2015 15:12:13

*** TITLE: * --------------------------- Parameters ---------------------------

TEMPERATURE : 27.000000 degrees C


Performing DC analysis...

--> Partitioning circuit...

***> DC CPU TIME 0s 000ms <***

DC:1 iterations FOR DC analysis
A            3.0000E+00
B            1.8571E-09
VDD          3.0000E+00
VIN          0.0       
VOUT         3.0000E+00

   TOTAL POWER DISSIPATION:  2.8470E-11 WATTS


Eldo NEWTON: VNTOL=1.000000e-06 RELTOL=7.500000e-04

Compute from 0.000000 Nano to 5.000000 Nano
................................................
Simulation progress           : 10%
Elapsed CPU time              : 0h 0mn 0s 10
................................................
Simulation progress           : 20%
Elapsed CPU time              : 0h 0mn 0s 20
................................................
Simulation progress           : 30%
Elapsed CPU time              : 0h 0mn 0s 30
................................................
Simulation progress           : 40%
Elapsed CPU time              : 0h 0mn 0s 50
................................................
Simulation progress           : 50%
Elapsed CPU time              : 0h 0mn 0s 60
................................................
Simulation progress           : 60%
Elapsed CPU time              : 0h 0mn 0s 70
................................................
Simulation progress           : 70%
Elapsed CPU time              : 0h 0mn 0s 90
................................................
Simulation progress           : 80%
Elapsed CPU time              : 0h 0mn 0s 100
................................................
Simulation progress           : 90%
Elapsed CPU time              : 0h 0mn 0s 110
................................................
Simulation progress           : 100%
Elapsed CPU time              : 0h 0mn 0s 120


***>Current simulation completed


 DELAY_FALL  =  6.2834E-11   
 DELAY_RISE  =  6.2686E-11   



***>CPU TIME 0s 120ms <***



run number 14
 value of parameter for WP2 is 7.300000E-06

Eldo VERSION : ELDO v6.6_1.1 Production(64 bits) Wed Sep 28 08:48:28 GMT 2005

*** DATE: 27-May-2015 15:12:14

*** TITLE: * --------------------------- Parameters ---------------------------

TEMPERATURE : 27.000000 degrees C


Performing DC analysis...

--> Partitioning circuit...

***> DC CPU TIME 0s 000ms <***

DC:1 iterations FOR DC analysis
A            3.0000E+00
B            1.8576E-09
VDD          3.0000E+00
VIN          0.0       
VOUT         3.0000E+00

   TOTAL POWER DISSIPATION:  2.8472E-11 WATTS


Eldo NEWTON: VNTOL=1.000000e-06 RELTOL=7.500000e-04

Compute from 0.000000 Nano to 5.000000 Nano
................................................
Simulation progress           : 10%
Elapsed CPU time              : 0h 0mn 0s 10
................................................
Simulation progress           : 20%
Elapsed CPU time              : 0h 0mn 0s 30
................................................
Simulation progress           : 30%
Elapsed CPU time              : 0h 0mn 0s 40
................................................
Simulation progress           : 40%
Elapsed CPU time              : 0h 0mn 0s 50
................................................
Simulation progress           : 50%
Elapsed CPU time              : 0h 0mn 0s 60
................................................
Simulation progress           : 60%
Elapsed CPU time              : 0h 0mn 0s 80
................................................
Simulation progress           : 70%
Elapsed CPU time              : 0h 0mn 0s 90
................................................
Simulation progress           : 80%
Elapsed CPU time              : 0h 0mn 0s 100
................................................
Simulation progress           : 90%
Elapsed CPU time              : 0h 0mn 0s 110
................................................
Simulation progress           : 100%
Elapsed CPU time              : 0h 0mn 0s 130


***>Current simulation completed


 DELAY_FALL  =  6.3041E-11   
 DELAY_RISE  =  6.2178E-11   



***>CPU TIME 0s 130ms <***



run number 15
 value of parameter for WP2 is 7.400000E-06

Eldo VERSION : ELDO v6.6_1.1 Production(64 bits) Wed Sep 28 08:48:28 GMT 2005

*** DATE: 27-May-2015 15:12:14

*** TITLE: * --------------------------- Parameters ---------------------------

TEMPERATURE : 27.000000 degrees C


Performing DC analysis...

--> Partitioning circuit...

***> DC CPU TIME 0s 000ms <***

DC:1 iterations FOR DC analysis
A            3.0000E+00
B            1.8582E-09
VDD          3.0000E+00
VIN          0.0       
VOUT         3.0000E+00

   TOTAL POWER DISSIPATION:  2.8475E-11 WATTS


Eldo NEWTON: VNTOL=1.000000e-06 RELTOL=7.500000e-04

Compute from 0.000000 Nano to 5.000000 Nano
................................................
Simulation progress           : 10%
Elapsed CPU time              : 0h 0mn 0s 10
................................................
Simulation progress           : 20%
Elapsed CPU time              : 0h 0mn 0s 20
................................................
Simulation progress           : 30%
Elapsed CPU time              : 0h 0mn 0s 30
................................................
Simulation progress           : 40%
Elapsed CPU time              : 0h 0mn 0s 50
................................................
Simulation progress           : 50%
Elapsed CPU time              : 0h 0mn 0s 60
................................................
Simulation progress           : 60%
Elapsed CPU time              : 0h 0mn 0s 70
................................................
Simulation progress           : 70%
Elapsed CPU time              : 0h 0mn 0s 80
................................................
Simulation progress           : 80%
Elapsed CPU time              : 0h 0mn 0s 100
................................................
Simulation progress           : 90%
Elapsed CPU time              : 0h 0mn 0s 110
................................................
Simulation progress           : 100%
Elapsed CPU time              : 0h 0mn 0s 120


***>Current simulation completed


 DELAY_FALL  =  6.3248E-11   
 DELAY_RISE  =  6.1684E-11   



***>CPU TIME 0s 120ms <***



run number 16
 value of parameter for WP2 is 7.500000E-06

Eldo VERSION : ELDO v6.6_1.1 Production(64 bits) Wed Sep 28 08:48:28 GMT 2005

*** DATE: 27-May-2015 15:12:14

*** TITLE: * --------------------------- Parameters ---------------------------

TEMPERATURE : 27.000000 degrees C


Performing DC analysis...

--> Partitioning circuit...

***> DC CPU TIME 0s 000ms <***

DC:1 iterations FOR DC analysis
A            3.0000E+00
B            1.8588E-09
VDD          3.0000E+00
VIN          0.0       
VOUT         3.0000E+00

   TOTAL POWER DISSIPATION:  2.8478E-11 WATTS


Eldo NEWTON: VNTOL=1.000000e-06 RELTOL=7.500000e-04

Compute from 0.000000 Nano to 5.000000 Nano
................................................
Simulation progress           : 10%
Elapsed CPU time              : 0h 0mn 0s 20
................................................
Simulation progress           : 20%
Elapsed CPU time              : 0h 0mn 0s 30
................................................
Simulation progress           : 30%
Elapsed CPU time              : 0h 0mn 0s 40
................................................
Simulation progress           : 40%
Elapsed CPU time              : 0h 0mn 0s 50
................................................
Simulation progress           : 50%
Elapsed CPU time              : 0h 0mn 0s 60
................................................
Simulation progress           : 60%
Elapsed CPU time              : 0h 0mn 0s 70
................................................
Simulation progress           : 70%
Elapsed CPU time              : 0h 0mn 0s 80
................................................
Simulation progress           : 80%
Elapsed CPU time              : 0h 0mn 0s 100
................................................
Simulation progress           : 90%
Elapsed CPU time              : 0h 0mn 0s 110
................................................
Simulation progress           : 100%
Elapsed CPU time              : 0h 0mn 0s 120


***>Current simulation completed


 DELAY_FALL  =  6.3455E-11   
 DELAY_RISE  =  6.1203E-11   



***>CPU TIME 0s 120ms <***



run number 17
 value of parameter for WP2 is 7.600000E-06

Eldo VERSION : ELDO v6.6_1.1 Production(64 bits) Wed Sep 28 08:48:28 GMT 2005

*** DATE: 27-May-2015 15:12:14

*** TITLE: * --------------------------- Parameters ---------------------------

TEMPERATURE : 27.000000 degrees C


Performing DC analysis...

--> Partitioning circuit...

***> DC CPU TIME 0s 000ms <***

DC:1 iterations FOR DC analysis
A            3.0000E+00
B            1.8593E-09
VDD          3.0000E+00
VIN          0.0       
VOUT         3.0000E+00

   TOTAL POWER DISSIPATION:  2.8481E-11 WATTS


Eldo NEWTON: VNTOL=1.000000e-06 RELTOL=7.500000e-04

Compute from 0.000000 Nano to 5.000000 Nano
................................................
Simulation progress           : 10%
Elapsed CPU time              : 0h 0mn 0s 10
................................................
Simulation progress           : 20%
Elapsed CPU time              : 0h 0mn 0s 30
................................................
Simulation progress           : 30%
Elapsed CPU time              : 0h 0mn 0s 40
................................................
Simulation progress           : 40%
Elapsed CPU time              : 0h 0mn 0s 50
................................................
Simulation progress           : 50%
Elapsed CPU time              : 0h 0mn 0s 60
................................................
Simulation progress           : 60%
Elapsed CPU time              : 0h 0mn 0s 80
................................................
Simulation progress           : 70%
Elapsed CPU time              : 0h 0mn 0s 90
................................................
Simulation progress           : 80%
Elapsed CPU time              : 0h 0mn 0s 100
................................................
Simulation progress           : 90%
Elapsed CPU time              : 0h 0mn 0s 110
................................................
Simulation progress           : 100%
Elapsed CPU time              : 0h 0mn 0s 120


***>Current simulation completed


 DELAY_FALL  =  6.3658E-11   
 DELAY_RISE  =  6.0734E-11   



***>CPU TIME 0s 120ms <***



run number 18
 value of parameter for WP2 is 7.700000E-06

Eldo VERSION : ELDO v6.6_1.1 Production(64 bits) Wed Sep 28 08:48:28 GMT 2005

*** DATE: 27-May-2015 15:12:14

*** TITLE: * --------------------------- Parameters ---------------------------

TEMPERATURE : 27.000000 degrees C


Performing DC analysis...

--> Partitioning circuit...

***> DC CPU TIME 0s 000ms <***

DC:1 iterations FOR DC analysis
A            3.0000E+00
B            1.8599E-09
VDD          3.0000E+00
VIN          0.0       
VOUT         3.0000E+00

   TOTAL POWER DISSIPATION:  2.8484E-11 WATTS


Eldo NEWTON: VNTOL=1.000000e-06 RELTOL=7.500000e-04

Compute from 0.000000 Nano to 5.000000 Nano
................................................
Simulation progress           : 10%
Elapsed CPU time              : 0h 0mn 0s 20
................................................
Simulation progress           : 20%
Elapsed CPU time              : 0h 0mn 0s 30
................................................
Simulation progress           : 30%
Elapsed CPU time              : 0h 0mn 0s 40
................................................
Simulation progress           : 40%
Elapsed CPU time              : 0h 0mn 0s 50
................................................
Simulation progress           : 50%
Elapsed CPU time              : 0h 0mn 0s 60
................................................
Simulation progress           : 60%
Elapsed CPU time              : 0h 0mn 0s 80
................................................
Simulation progress           : 70%
Elapsed CPU time              : 0h 0mn 0s 80
................................................
Simulation progress           : 80%
Elapsed CPU time              : 0h 0mn 0s 100
................................................
Simulation progress           : 90%
Elapsed CPU time              : 0h 0mn 0s 110
................................................
Simulation progress           : 100%
Elapsed CPU time              : 0h 0mn 0s 120


***>Current simulation completed


 DELAY_FALL  =  6.3860E-11   
 DELAY_RISE  =  6.0277E-11   



***>CPU TIME 0s 120ms <***



run number 19
 value of parameter for WP2 is 7.800000E-06

Eldo VERSION : ELDO v6.6_1.1 Production(64 bits) Wed Sep 28 08:48:28 GMT 2005

*** DATE: 27-May-2015 15:12:14

*** TITLE: * --------------------------- Parameters ---------------------------

TEMPERATURE : 27.000000 degrees C


Performing DC analysis...

--> Partitioning circuit...

***> DC CPU TIME 0s 000ms <***

DC:1 iterations FOR DC analysis
A            3.0000E+00
B            1.8605E-09
VDD          3.0000E+00
VIN          0.0       
VOUT         3.0000E+00

   TOTAL POWER DISSIPATION:  2.8487E-11 WATTS


Eldo NEWTON: VNTOL=1.000000e-06 RELTOL=7.500000e-04

Compute from 0.000000 Nano to 5.000000 Nano
................................................
Simulation progress           : 10%
Elapsed CPU time              : 0h 0mn 0s 20
................................................
Simulation progress           : 20%
Elapsed CPU time              : 0h 0mn 0s 30
................................................
Simulation progress           : 30%
Elapsed CPU time              : 0h 0mn 0s 40
................................................
Simulation progress           : 40%
Elapsed CPU time              : 0h 0mn 0s 50
................................................
Simulation progress           : 50%
Elapsed CPU time              : 0h 0mn 0s 60
................................................
Simulation progress           : 60%
Elapsed CPU time              : 0h 0mn 0s 80
................................................
Simulation progress           : 70%
Elapsed CPU time              : 0h 0mn 0s 90
................................................
Simulation progress           : 80%
Elapsed CPU time              : 0h 0mn 0s 100
................................................
Simulation progress           : 90%
Elapsed CPU time              : 0h 0mn 0s 110
................................................
Simulation progress           : 100%
Elapsed CPU time              : 0h 0mn 0s 120


***>Current simulation completed


 DELAY_FALL  =  6.4062E-11   
 DELAY_RISE  =  5.9832E-11   



***>CPU TIME 0s 120ms <***



run number 20
 value of parameter for WP2 is 7.900000E-06

Eldo VERSION : ELDO v6.6_1.1 Production(64 bits) Wed Sep 28 08:48:28 GMT 2005

*** DATE: 27-May-2015 15:12:14

*** TITLE: * --------------------------- Parameters ---------------------------

TEMPERATURE : 27.000000 degrees C


Performing DC analysis...

--> Partitioning circuit...

***> DC CPU TIME 0s 000ms <***

DC:1 iterations FOR DC analysis
A            3.0000E+00
B            1.8611E-09
VDD          3.0000E+00
VIN          0.0       
VOUT         3.0000E+00

   TOTAL POWER DISSIPATION:  2.8489E-11 WATTS


Eldo NEWTON: VNTOL=1.000000e-06 RELTOL=7.500000e-04

Compute from 0.000000 Nano to 5.000000 Nano
................................................
Simulation progress           : 10%
Elapsed CPU time              : 0h 0mn 0s 20
................................................
Simulation progress           : 20%
Elapsed CPU time              : 0h 0mn 0s 20
................................................
Simulation progress           : 30%
Elapsed CPU time              : 0h 0mn 0s 40
................................................
Simulation progress           : 40%
Elapsed CPU time              : 0h 0mn 0s 50
................................................
Simulation progress           : 50%
Elapsed CPU time              : 0h 0mn 0s 60
................................................
Simulation progress           : 60%
Elapsed CPU time              : 0h 0mn 0s 80
................................................
Simulation progress           : 70%
Elapsed CPU time              : 0h 0mn 0s 90
................................................
Simulation progress           : 80%
Elapsed CPU time              : 0h 0mn 0s 100
................................................
Simulation progress           : 90%
Elapsed CPU time              : 0h 0mn 0s 110
................................................
Simulation progress           : 100%
Elapsed CPU time              : 0h 0mn 0s 120


***>Current simulation completed


 DELAY_FALL  =  6.4263E-11   
 DELAY_RISE  =  5.9398E-11   



***>CPU TIME 0s 120ms <***



run number 21
 value of parameter for WP2 is 8.000000E-06

Eldo VERSION : ELDO v6.6_1.1 Production(64 bits) Wed Sep 28 08:48:28 GMT 2005

*** DATE: 27-May-2015 15:12:14

*** TITLE: * --------------------------- Parameters ---------------------------

TEMPERATURE : 27.000000 degrees C


Performing DC analysis...

--> Partitioning circuit...

***> DC CPU TIME 0s 000ms <***

DC:1 iterations FOR DC analysis
A            3.0000E+00
B            1.8617E-09
VDD          3.0000E+00
VIN          0.0       
VOUT         3.0000E+00

   TOTAL POWER DISSIPATION:  2.8492E-11 WATTS


Eldo NEWTON: VNTOL=1.000000e-06 RELTOL=7.500000e-04

Compute from 0.000000 Nano to 5.000000 Nano
................................................
Simulation progress           : 10%
Elapsed CPU time              : 0h 0mn 0s 20
................................................
Simulation progress           : 20%
Elapsed CPU time              : 0h 0mn 0s 30
................................................
Simulation progress           : 30%
Elapsed CPU time              : 0h 0mn 0s 40
................................................
Simulation progress           : 40%
Elapsed CPU time              : 0h 0mn 0s 50
................................................
Simulation progress           : 50%
Elapsed CPU time              : 0h 0mn 0s 60
................................................
Simulation progress           : 60%
Elapsed CPU time              : 0h 0mn 0s 80
................................................
Simulation progress           : 70%
Elapsed CPU time              : 0h 0mn 0s 90
................................................
Simulation progress           : 80%
Elapsed CPU time              : 0h 0mn 0s 100
................................................
Simulation progress           : 90%
Elapsed CPU time              : 0h 0mn 0s 110
................................................
Simulation progress           : 100%
Elapsed CPU time              : 0h 0mn 0s 120


***>Current simulation completed


 DELAY_FALL  =  6.4465E-11   
 DELAY_RISE  =  5.8974E-11   



***>CPU TIME 0s 120ms <***



run number 22
 value of parameter for WP2 is 8.100000E-06

Eldo VERSION : ELDO v6.6_1.1 Production(64 bits) Wed Sep 28 08:48:28 GMT 2005

*** DATE: 27-May-2015 15:12:15

*** TITLE: * --------------------------- Parameters ---------------------------

TEMPERATURE : 27.000000 degrees C


Performing DC analysis...

--> Partitioning circuit...

***> DC CPU TIME 0s 000ms <***

DC:1 iterations FOR DC analysis
A            3.0000E+00
B            1.8622E-09
VDD          3.0000E+00
VIN          0.0       
VOUT         3.0000E+00

   TOTAL POWER DISSIPATION:  2.8495E-11 WATTS


Eldo NEWTON: VNTOL=1.000000e-06 RELTOL=7.500000e-04

Compute from 0.000000 Nano to 5.000000 Nano
................................................
Simulation progress           : 10%
Elapsed CPU time              : 0h 0mn 0s 20
................................................
Simulation progress           : 20%
Elapsed CPU time              : 0h 0mn 0s 30
................................................
Simulation progress           : 30%
Elapsed CPU time              : 0h 0mn 0s 40
................................................
Simulation progress           : 40%
Elapsed CPU time              : 0h 0mn 0s 60
................................................
Simulation progress           : 50%
Elapsed CPU time              : 0h 0mn 0s 70
................................................
Simulation progress           : 60%
Elapsed CPU time              : 0h 0mn 0s 80
................................................
Simulation progress           : 70%
Elapsed CPU time              : 0h 0mn 0s 90
................................................
Simulation progress           : 80%
Elapsed CPU time              : 0h 0mn 0s 100
................................................
Simulation progress           : 90%
Elapsed CPU time              : 0h 0mn 0s 120
................................................
Simulation progress           : 100%
Elapsed CPU time              : 0h 0mn 0s 130


***>Current simulation completed


 DELAY_FALL  =  6.4666E-11   
 DELAY_RISE  =  5.8561E-11   



***>CPU TIME 0s 130ms <***



run number 23
 value of parameter for WP2 is 8.200000E-06

Eldo VERSION : ELDO v6.6_1.1 Production(64 bits) Wed Sep 28 08:48:28 GMT 2005

*** DATE: 27-May-2015 15:12:15

*** TITLE: * --------------------------- Parameters ---------------------------

TEMPERATURE : 27.000000 degrees C


Performing DC analysis...

--> Partitioning circuit...

***> DC CPU TIME 0s 000ms <***

DC:1 iterations FOR DC analysis
A            3.0000E+00
B            1.8628E-09
VDD          3.0000E+00
VIN          0.0       
VOUT         3.0000E+00

   TOTAL POWER DISSIPATION:  2.8498E-11 WATTS


Eldo NEWTON: VNTOL=1.000000e-06 RELTOL=7.500000e-04

Compute from 0.000000 Nano to 5.000000 Nano
................................................
Simulation progress           : 10%
Elapsed CPU time              : 0h 0mn 0s 10
................................................
Simulation progress           : 20%
Elapsed CPU time              : 0h 0mn 0s 20
................................................
Simulation progress           : 30%
Elapsed CPU time              : 0h 0mn 0s 30
................................................
Simulation progress           : 40%
Elapsed CPU time              : 0h 0mn 0s 50
................................................
Simulation progress           : 50%
Elapsed CPU time              : 0h 0mn 0s 60
................................................
Simulation progress           : 60%
Elapsed CPU time              : 0h 0mn 0s 70
................................................
Simulation progress           : 70%
Elapsed CPU time              : 0h 0mn 0s 90
................................................
Simulation progress           : 80%
Elapsed CPU time              : 0h 0mn 0s 100
................................................
Simulation progress           : 90%
Elapsed CPU time              : 0h 0mn 0s 110
................................................
Simulation progress           : 100%
Elapsed CPU time              : 0h 0mn 0s 120


***>Current simulation completed


 DELAY_FALL  =  6.4864E-11   
 DELAY_RISE  =  5.8157E-11   



***>CPU TIME 0s 120ms <***



run number 24
 value of parameter for WP2 is 8.300000E-06

Eldo VERSION : ELDO v6.6_1.1 Production(64 bits) Wed Sep 28 08:48:28 GMT 2005

*** DATE: 27-May-2015 15:12:15

*** TITLE: * --------------------------- Parameters ---------------------------

TEMPERATURE : 27.000000 degrees C


Performing DC analysis...

--> Partitioning circuit...

***> DC CPU TIME 0s 000ms <***

DC:1 iterations FOR DC analysis
A            3.0000E+00
B            1.8634E-09
VDD          3.0000E+00
VIN          0.0       
VOUT         3.0000E+00

   TOTAL POWER DISSIPATION:  2.8501E-11 WATTS


Eldo NEWTON: VNTOL=1.000000e-06 RELTOL=7.500000e-04

Compute from 0.000000 Nano to 5.000000 Nano
................................................
Simulation progress           : 10%
Elapsed CPU time              : 0h 0mn 0s 20
................................................
Simulation progress           : 20%
Elapsed CPU time              : 0h 0mn 0s 30
................................................
Simulation progress           : 30%
Elapsed CPU time              : 0h 0mn 0s 40
................................................
Simulation progress           : 40%
Elapsed CPU time              : 0h 0mn 0s 50
................................................
Simulation progress           : 50%
Elapsed CPU time              : 0h 0mn 0s 70
................................................
Simulation progress           : 60%
Elapsed CPU time              : 0h 0mn 0s 80
................................................
Simulation progress           : 70%
Elapsed CPU time              : 0h 0mn 0s 90
................................................
Simulation progress           : 80%
Elapsed CPU time              : 0h 0mn 0s 100
................................................
Simulation progress           : 90%
Elapsed CPU time              : 0h 0mn 0s 110
................................................
Simulation progress           : 100%
Elapsed CPU time              : 0h 0mn 0s 130


***>Current simulation completed


 DELAY_FALL  =  6.5062E-11   
 DELAY_RISE  =  5.7761E-11   



***>CPU TIME 0s 130ms <***



run number 25
 value of parameter for WP2 is 8.400000E-06

Eldo VERSION : ELDO v6.6_1.1 Production(64 bits) Wed Sep 28 08:48:28 GMT 2005

*** DATE: 27-May-2015 15:12:15

*** TITLE: * --------------------------- Parameters ---------------------------

TEMPERATURE : 27.000000 degrees C


Performing DC analysis...

--> Partitioning circuit...

***> DC CPU TIME 0s 000ms <***

DC:1 iterations FOR DC analysis
A            3.0000E+00
B            1.8640E-09
VDD          3.0000E+00
VIN          0.0       
VOUT         3.0000E+00

   TOTAL POWER DISSIPATION:  2.8504E-11 WATTS


Eldo NEWTON: VNTOL=1.000000e-06 RELTOL=7.500000e-04

Compute from 0.000000 Nano to 5.000000 Nano
................................................
Simulation progress           : 10%
Elapsed CPU time              : 0h 0mn 0s 10
................................................
Simulation progress           : 20%
Elapsed CPU time              : 0h 0mn 0s 20
................................................
Simulation progress           : 30%
Elapsed CPU time              : 0h 0mn 0s 30
................................................
Simulation progress           : 40%
Elapsed CPU time              : 0h 0mn 0s 40
................................................
Simulation progress           : 50%
Elapsed CPU time              : 0h 0mn 0s 60
................................................
Simulation progress           : 60%
Elapsed CPU time              : 0h 0mn 0s 70
................................................
Simulation progress           : 70%
Elapsed CPU time              : 0h 0mn 0s 80
................................................
Simulation progress           : 80%
Elapsed CPU time              : 0h 0mn 0s 100
................................................
Simulation progress           : 90%
Elapsed CPU time              : 0h 0mn 0s 110
................................................
Simulation progress           : 100%
Elapsed CPU time              : 0h 0mn 0s 120


***>Current simulation completed


 DELAY_FALL  =  6.5259E-11   
 DELAY_RISE  =  5.7375E-11   



***>CPU TIME 0s 120ms <***



run number 26
 value of parameter for WP2 is 8.500000E-06

Eldo VERSION : ELDO v6.6_1.1 Production(64 bits) Wed Sep 28 08:48:28 GMT 2005

*** DATE: 27-May-2015 15:12:15

*** TITLE: * --------------------------- Parameters ---------------------------

TEMPERATURE : 27.000000 degrees C


Performing DC analysis...

--> Partitioning circuit...

***> DC CPU TIME 0s 000ms <***

DC:1 iterations FOR DC analysis
A            3.0000E+00
B            1.8646E-09
VDD          3.0000E+00
VIN          0.0       
VOUT         3.0000E+00

   TOTAL POWER DISSIPATION:  2.8507E-11 WATTS


Eldo NEWTON: VNTOL=1.000000e-06 RELTOL=7.500000e-04

Compute from 0.000000 Nano to 5.000000 Nano
................................................
Simulation progress           : 10%
Elapsed CPU time              : 0h 0mn 0s 10
................................................
Simulation progress           : 20%
Elapsed CPU time              : 0h 0mn 0s 20
................................................
Simulation progress           : 30%
Elapsed CPU time              : 0h 0mn 0s 40
................................................
Simulation progress           : 40%
Elapsed CPU time              : 0h 0mn 0s 50
................................................
Simulation progress           : 50%
Elapsed CPU time              : 0h 0mn 0s 60
................................................
Simulation progress           : 60%
Elapsed CPU time              : 0h 0mn 0s 80
................................................
Simulation progress           : 70%
Elapsed CPU time              : 0h 0mn 0s 80
................................................
Simulation progress           : 80%
Elapsed CPU time              : 0h 0mn 0s 100
................................................
Simulation progress           : 90%
Elapsed CPU time              : 0h 0mn 0s 110
................................................
Simulation progress           : 100%
Elapsed CPU time              : 0h 0mn 0s 120


***>Current simulation completed


 DELAY_FALL  =  6.5455E-11   
 DELAY_RISE  =  5.6999E-11   



***>CPU TIME 0s 120ms <***



run number 27
 value of parameter for WP2 is 8.600000E-06

Eldo VERSION : ELDO v6.6_1.1 Production(64 bits) Wed Sep 28 08:48:28 GMT 2005

*** DATE: 27-May-2015 15:12:15

*** TITLE: * --------------------------- Parameters ---------------------------

TEMPERATURE : 27.000000 degrees C


Performing DC analysis...

--> Partitioning circuit...

***> DC CPU TIME 0s 000ms <***

DC:1 iterations FOR DC analysis
A            3.0000E+00
B            1.8652E-09
VDD          3.0000E+00
VIN          0.0       
VOUT         3.0000E+00

   TOTAL POWER DISSIPATION:  2.8510E-11 WATTS


Eldo NEWTON: VNTOL=1.000000e-06 RELTOL=7.500000e-04

Compute from 0.000000 Nano to 5.000000 Nano
................................................
Simulation progress           : 10%
Elapsed CPU time              : 0h 0mn 0s 10
................................................
Simulation progress           : 20%
Elapsed CPU time              : 0h 0mn 0s 20
................................................
Simulation progress           : 30%
Elapsed CPU time              : 0h 0mn 0s 40
................................................
Simulation progress           : 40%
Elapsed CPU time              : 0h 0mn 0s 40
................................................
Simulation progress           : 50%
Elapsed CPU time              : 0h 0mn 0s 60
................................................
Simulation progress           : 60%
Elapsed CPU time              : 0h 0mn 0s 70
................................................
Simulation progress           : 70%
Elapsed CPU time              : 0h 0mn 0s 80
................................................
Simulation progress           : 80%
Elapsed CPU time              : 0h 0mn 0s 100
................................................
Simulation progress           : 90%
Elapsed CPU time              : 0h 0mn 0s 110
................................................
Simulation progress           : 100%
Elapsed CPU time              : 0h 0mn 0s 120


***>Current simulation completed


 DELAY_FALL  =  6.5652E-11   
 DELAY_RISE  =  5.6629E-11   



***>CPU TIME 0s 120ms <***



run number 28
 value of parameter for WP2 is 8.700000E-06

Eldo VERSION : ELDO v6.6_1.1 Production(64 bits) Wed Sep 28 08:48:28 GMT 2005

*** DATE: 27-May-2015 15:12:15

*** TITLE: * --------------------------- Parameters ---------------------------

TEMPERATURE : 27.000000 degrees C


Performing DC analysis...

--> Partitioning circuit...

***> DC CPU TIME 0s 000ms <***

DC:1 iterations FOR DC analysis
A            3.0000E+00
B            1.8658E-09
VDD          3.0000E+00
VIN          0.0       
VOUT         3.0000E+00

   TOTAL POWER DISSIPATION:  2.8513E-11 WATTS


Eldo NEWTON: VNTOL=1.000000e-06 RELTOL=7.500000e-04

Compute from 0.000000 Nano to 5.000000 Nano
................................................
Simulation progress           : 10%
Elapsed CPU time              : 0h 0mn 0s 10
................................................
Simulation progress           : 20%
Elapsed CPU time              : 0h 0mn 0s 30
................................................
Simulation progress           : 30%
Elapsed CPU time              : 0h 0mn 0s 40
................................................
Simulation progress           : 40%
Elapsed CPU time              : 0h 0mn 0s 50
................................................
Simulation progress           : 50%
Elapsed CPU time              : 0h 0mn 0s 60
................................................
Simulation progress           : 60%
Elapsed CPU time              : 0h 0mn 0s 80
................................................
Simulation progress           : 70%
Elapsed CPU time              : 0h 0mn 0s 90
................................................
Simulation progress           : 80%
Elapsed CPU time              : 0h 0mn 0s 100
................................................
Simulation progress           : 90%
Elapsed CPU time              : 0h 0mn 0s 110
................................................
Simulation progress           : 100%
Elapsed CPU time              : 0h 0mn 0s 120


***>Current simulation completed


 DELAY_FALL  =  6.5848E-11   
 DELAY_RISE  =  5.6268E-11   



***>CPU TIME 0s 130ms <***



run number 29
 value of parameter for WP2 is 8.800000E-06

Eldo VERSION : ELDO v6.6_1.1 Production(64 bits) Wed Sep 28 08:48:28 GMT 2005

*** DATE: 27-May-2015 15:12:15

*** TITLE: * --------------------------- Parameters ---------------------------

TEMPERATURE : 27.000000 degrees C


Performing DC analysis...

--> Partitioning circuit...

***> DC CPU TIME 0s 000ms <***

DC:1 iterations FOR DC analysis
A            3.0000E+00
B            1.8664E-09
VDD          3.0000E+00
VIN          0.0       
VOUT         3.0000E+00

   TOTAL POWER DISSIPATION:  2.8516E-11 WATTS


Eldo NEWTON: VNTOL=1.000000e-06 RELTOL=7.500000e-04

Compute from 0.000000 Nano to 5.000000 Nano
................................................
Simulation progress           : 10%
Elapsed CPU time              : 0h 0mn 0s 10
................................................
Simulation progress           : 20%
Elapsed CPU time              : 0h 0mn 0s 20
................................................
Simulation progress           : 30%
Elapsed CPU time              : 0h 0mn 0s 30
................................................
Simulation progress           : 40%
Elapsed CPU time              : 0h 0mn 0s 50
................................................
Simulation progress           : 50%
Elapsed CPU time              : 0h 0mn 0s 60
................................................
Simulation progress           : 60%
Elapsed CPU time              : 0h 0mn 0s 70
................................................
Simulation progress           : 70%
Elapsed CPU time              : 0h 0mn 0s 80
................................................
Simulation progress           : 80%
Elapsed CPU time              : 0h 0mn 0s 90
................................................
Simulation progress           : 90%
Elapsed CPU time              : 0h 0mn 0s 100
................................................
Simulation progress           : 100%
Elapsed CPU time              : 0h 0mn 0s 110


***>Current simulation completed


 DELAY_FALL  =  6.6042E-11   
 DELAY_RISE  =  5.5916E-11   



***>CPU TIME 0s 120ms <***



run number 30
 value of parameter for WP2 is 8.900000E-06

Eldo VERSION : ELDO v6.6_1.1 Production(64 bits) Wed Sep 28 08:48:28 GMT 2005

*** DATE: 27-May-2015 15:12:16

*** TITLE: * --------------------------- Parameters ---------------------------

TEMPERATURE : 27.000000 degrees C


Performing DC analysis...

--> Partitioning circuit...

***> DC CPU TIME 0s 000ms <***

DC:1 iterations FOR DC analysis
A            3.0000E+00
B            1.8670E-09
VDD          3.0000E+00
VIN          0.0       
VOUT         3.0000E+00

   TOTAL POWER DISSIPATION:  2.8519E-11 WATTS


Eldo NEWTON: VNTOL=1.000000e-06 RELTOL=7.500000e-04

Compute from 0.000000 Nano to 5.000000 Nano
................................................
Simulation progress           : 10%
Elapsed CPU time              : 0h 0mn 0s 10
................................................
Simulation progress           : 20%
Elapsed CPU time              : 0h 0mn 0s 20
................................................
Simulation progress           : 30%
Elapsed CPU time              : 0h 0mn 0s 30
................................................
Simulation progress           : 40%
Elapsed CPU time              : 0h 0mn 0s 50
................................................
Simulation progress           : 50%
Elapsed CPU time              : 0h 0mn 0s 60
................................................
Simulation progress           : 60%
Elapsed CPU time              : 0h 0mn 0s 70
................................................
Simulation progress           : 70%
Elapsed CPU time              : 0h 0mn 0s 80
................................................
Simulation progress           : 80%
Elapsed CPU time              : 0h 0mn 0s 90
................................................
Simulation progress           : 90%
Elapsed CPU time              : 0h 0mn 0s 100
................................................
Simulation progress           : 100%
Elapsed CPU time              : 0h 0mn 0s 110


***>Current simulation completed


 DELAY_FALL  =  6.6235E-11   
 DELAY_RISE  =  5.5571E-11   



***>CPU TIME 0s 110ms <***



run number 31
 value of parameter for WP2 is 9.000000E-06

Eldo VERSION : ELDO v6.6_1.1 Production(64 bits) Wed Sep 28 08:48:28 GMT 2005

*** DATE: 27-May-2015 15:12:16

*** TITLE: * --------------------------- Parameters ---------------------------

TEMPERATURE : 27.000000 degrees C


Performing DC analysis...

--> Partitioning circuit...

***> DC CPU TIME 0s 000ms <***

DC:1 iterations FOR DC analysis
A            3.0000E+00
B            1.8676E-09
VDD          3.0000E+00
VIN          0.0       
VOUT         3.0000E+00

   TOTAL POWER DISSIPATION:  2.8522E-11 WATTS


Eldo NEWTON: VNTOL=1.000000e-06 RELTOL=7.500000e-04

Compute from 0.000000 Nano to 5.000000 Nano
................................................
Simulation progress           : 10%
Elapsed CPU time              : 0h 0mn 0s 20
................................................
Simulation progress           : 20%
Elapsed CPU time              : 0h 0mn 0s 30
................................................
Simulation progress           : 30%
Elapsed CPU time              : 0h 0mn 0s 40
................................................
Simulation progress           : 40%
Elapsed CPU time              : 0h 0mn 0s 60
................................................
Simulation progress           : 50%
Elapsed CPU time              : 0h 0mn 0s 70
................................................
Simulation progress           : 60%
Elapsed CPU time              : 0h 0mn 0s 80
................................................
Simulation progress           : 70%
Elapsed CPU time              : 0h 0mn 0s 100
................................................
Simulation progress           : 80%
Elapsed CPU time              : 0h 0mn 0s 110
................................................
Simulation progress           : 90%
Elapsed CPU time              : 0h 0mn 0s 120
................................................
Simulation progress           : 100%
Elapsed CPU time              : 0h 0mn 0s 140


***>Current simulation completed


 DELAY_FALL  =  6.6427E-11   
 DELAY_RISE  =  5.5233E-11   


SIMULATION INFORMATION 
memory size allocated in bytes 1518085
Latency: 0.000000%
average number of newton iterations: 1.288800
nb of components: 20
nb of nodes: 17
nb of MOS or BIP calls: 19837
Number of steps computed: 4999

***>CPU TIME 0s 140ms <***


***>GLOBAL CPU TIME 3s 800ms <***


***>GLOBAL ELAPSED TIME 5s <***


