\select@language {brazilian}
\contentsline {table}{\numberline {1}{\ignorespaces Valores para as resistividades das camadas dos metais}}{4}
\contentsline {table}{\numberline {2}{\ignorespaces Valores para as capacit\IeC {\^a}ncias das camadas dos metais com os \emph {wells}}}{5}
\contentsline {table}{\numberline {3}{\ignorespaces Valores para as resistividades dos contato dos metais}}{6}
\contentsline {table}{\numberline {4}{\ignorespaces Valores para as resistividades das vias de metais}}{6}
\contentsline {table}{\numberline {5}{\ignorespaces Resistividades \textbf {pdif, ndif, nwell, poly, poly2 e poly2 com alta resistividade}}}{6}
\contentsline {table}{\numberline {6}{\ignorespaces Valores para as densidades de corrent dos metais}}{7}
\contentsline {table}{\numberline {7}{\ignorespaces Valores para as densidades de corrent dos contatos}}{7}
\contentsline {table}{\numberline {8}{\ignorespaces Valores para as densidades de corrent das vias}}{7}
\contentsline {table}{\numberline {9}{\ignorespaces Valores para as capacit\IeC {\^a}ncias das camadas dos metais e poly-poly}}{12}
