\relax 
\catcode `"\active 
\providecommand \oddpage@label [2]{}
\select@language{brazilian}
\@writefile{toc}{\select@language{brazilian}}
\@writefile{lof}{\select@language{brazilian}}
\@writefile{lot}{\select@language{brazilian}}
\@writefile{toc}{\contentsline {section}{\numberline {1}Introdu\IeC {\c c}\IeC {\~a}o}{3}}
\@writefile{toc}{\contentsline {section}{\numberline {2}Projeto}{4}}
\@writefile{lot}{\contentsline {table}{\numberline {1}{\ignorespaces Valores para as resistividades das camadas dos metais}}{4}}
\newlabel{resistance_table}{{1}{4}}
\@writefile{lof}{\contentsline {figure}{\numberline {1}{\ignorespaces Resist\IeC {\^e}ncia}}{4}}
\newlabel{diagram_resistance}{{1}{4}}
\newlabel{resistance_equation}{{1}{4}}
\@writefile{lot}{\contentsline {table}{\numberline {2}{\ignorespaces Valores para as capacit\IeC {\^a}ncias das camadas dos metais com os \emph  {wells}}}{5}}
\newlabel{capacitance_table}{{2}{5}}
\@writefile{lot}{\contentsline {table}{\numberline {3}{\ignorespaces Valores para as resistividades dos contato dos metais}}{6}}
\newlabel{resistance_contact}{{3}{6}}
\@writefile{lot}{\contentsline {table}{\numberline {4}{\ignorespaces Valores para as resistividades das vias de metais}}{6}}
\newlabel{resistance_vias}{{4}{6}}
\@writefile{lot}{\contentsline {table}{\numberline {5}{\ignorespaces Resistividades \textbf  {pdif, ndif, nwell, poly, poly2 e poly2 com alta resistividade}}}{6}}
\newlabel{sheet_resistance_table}{{5}{6}}
\@writefile{lot}{\contentsline {table}{\numberline {6}{\ignorespaces Valores para as densidades de corrent dos metais}}{7}}
\newlabel{metal_current_density}{{6}{7}}
\@writefile{lot}{\contentsline {table}{\numberline {7}{\ignorespaces Valores para as densidades de corrent dos contatos}}{7}}
\newlabel{contact_current_density}{{7}{7}}
\@writefile{lot}{\contentsline {table}{\numberline {8}{\ignorespaces Valores para as densidades de corrent das vias}}{7}}
\newlabel{via_current_density}{{8}{7}}
\@writefile{lof}{\contentsline {figure}{\numberline {2}{\ignorespaces Resistor RNWELL}}{8}}
\newlabel{rnwell_resistor}{{2}{8}}
\@writefile{lof}{\contentsline {figure}{\numberline {3}{\ignorespaces \emph  {Layout} do transistor NMOS (medidas em $\ensuremath  {\SI@fstyle  {\upmu }}m$)}}{10}}
\newlabel{nmos_layout}{{3}{10}}
\@writefile{lof}{\contentsline {figure}{\numberline {4}{\ignorespaces \emph  {Layout} do transistor PMOS (medidas em $\ensuremath  {\SI@fstyle  {\upmu }}m$)}}{10}}
\newlabel{pmos_layout}{{4}{10}}
\@writefile{lof}{\contentsline {figure}{\numberline {5}{\ignorespaces Resistor RPOLYH de alta resist\IeC {\^e}ncia}}{12}}
\newlabel{rpolyh_resistor}{{5}{12}}
\@writefile{lot}{\contentsline {table}{\numberline {9}{\ignorespaces Valores para as capacit\IeC {\^a}ncias das camadas dos metais e poly-poly}}{12}}
\newlabel{capacitance_metals_table}{{9}{12}}
\@writefile{lof}{\contentsline {figure}{\numberline {6}{\ignorespaces Capacitor CPOLY(POLY1-POLY2)}}{13}}
\newlabel{cpoly_capacitor}{{6}{13}}
