* --------------------------- Parameters ---------------------------
.param T1=6.0ns tsweep=0.1n Cl=300fF

* ---------------------------  Includes  ---------------------------
.include "invccc.sp"

* ------------------------------ INVERSOR ------------------------------
X1 VIN VOUT VDD 0 INV

* --------------------------- Capacitor ----------------------------
Cp  VOUT  0 Cl
  
VDD  VDD 0 3v
VIN  VIN 0 PULSE (0 3.0 0 '0.01*T1' '0.01*T1' '0.49*T1' T1)

* --------------------------- Commands -----------------------------
.op
.tran 0.1n '5*T1' 0 1p
.ic V(VIN) = 0
.plot v(VOUT) v(VIN)

.meas tran power avg i(vdd) from=T1 to='2*T1'
.meas tran consumed_power PARAM='3*power'
.meas tran delay_fall trig V(VIN) val=1.5 rise=3 targ v(VOUT) val=1.5 fall=3
.meas tran delay_rise trig V(VIN) val=1.5 fall=3 targ v(VOUT) val=1.5 rise=3

.include "cmos.mod"

.end
