\select@language {brazilian}
\contentsline {table}{\numberline {1}{\ignorespaces Atalhos de teclado do \emph {software} MENTOR}}{5}
\contentsline {table}{\numberline {2}{\ignorespaces Densidades das camadas dadas em porcentagem (\%) da \IeC {\'a}rea total do \emph {chip}}}{8}
