\relax 
\catcode `"\active 
\providecommand \oddpage@label [2]{}
\select@language{brazilian}
\@writefile{toc}{\select@language{brazilian}}
\@writefile{lof}{\select@language{brazilian}}
\@writefile{lot}{\select@language{brazilian}}
\@writefile{toc}{\contentsline {section}{\numberline {1}Introdu\IeC {\c c}\IeC {\~a}o}{4}}
\@writefile{toc}{\contentsline {section}{\numberline {2}Projeto}{5}}
\@writefile{lot}{\contentsline {table}{\numberline {1}{\ignorespaces Atalhos de teclado do \emph  {software} MENTOR}}{5}}
\newlabel{tab:keyboard_commands}{{1}{5}}
\@writefile{lof}{\contentsline {figure}{\numberline {1}{\ignorespaces Esquem\IeC {\'a}tico do inversor CMOS}}{7}}
\newlabel{fig:schematic_inversor}{{1}{7}}
\newlabel{equ:tphl}{{1}{7}}
\newlabel{equ:tplh}{{2}{7}}
\@writefile{lot}{\contentsline {table}{\numberline {2}{\ignorespaces Densidades das camadas dadas em porcentagem (\%) da \IeC {\'a}rea total do \emph  {chip}}}{8}}
\newlabel{tab:densities}{{2}{8}}
\@writefile{lof}{\contentsline {figure}{\numberline {2}{\ignorespaces Inversor CMOS criado na ferramenta MENTOR}}{8}}
\newlabel{fig:inversor}{{2}{8}}
