\select@language {brazilian}
\contentsline {table}{\numberline {1}{\ignorespaces Descri\IeC {\c c}\IeC {\~a}o dos modos de extra\IeC {\c c}\IeC {\~a}o do \emph {software} MENTOR para \emph {layouts} CMOS}}{6}
\contentsline {table}{\numberline {2}{\ignorespaces Valores de atraso de subida, descida e pot\IeC {\^e}ncia consumida para capacit\IeC {\^a}ncias de carga variando de $50fF$ at\IeC {\'e} $300fF$}}{11}
\contentsline {table}{\numberline {3}{\ignorespaces Valores de atraso de subida, descida e pot\IeC {\^e}ncia consumida para capacit\IeC {\^a}ncias de carga variando de $50fF$ at\IeC {\'e} $300fF$ com tens\IeC {\~a}o de alimenta\IeC {\c c}\IeC {\~a}o em $2V$}}{17}
\contentsline {table}{\numberline {4}{\ignorespaces Valores de atraso de subida e descida par os inversores constituintes do oscilador em anel}}{21}
\contentsline {table}{\numberline {5}{\ignorespaces Coeficientes adiquiridos dos modelos utilizados para simula\IeC {\c c}\IeC {\~a}o dos elementos NMOS e PMOS}}{24}
\contentsline {table}{\numberline {6}{\ignorespaces Coeficientes de capacit\IeC {\^a}ncia de \emph {overlap} adiquiridos dos modelos MODN e MODP utilizados nas simula\IeC {\c c}\IeC {\~o}es}}{26}
\contentsline {table}{\numberline {7}{\ignorespaces Valores para os coeficientes do modelo extr\IeC {\'\i }nseco dos dispositivos NMOS e PMOS}}{27}
