\relax 
\catcode `"\active 
\providecommand \oddpage@label [2]{}
\select@language{brazilian}
\@writefile{toc}{\select@language{brazilian}}
\@writefile{lof}{\select@language{brazilian}}
\@writefile{lot}{\select@language{brazilian}}
\@writefile{toc}{\contentsline {section}{\numberline {1}Introdu\IeC {\c c}\IeC {\~a}o}{4}}
\@writefile{toc}{\contentsline {section}{\numberline {2}Projeto}{5}}
\@writefile{lof}{\contentsline {figure}{\numberline {1}{\ignorespaces \emph  {Layout} de um inversor CMOS desenvolvido a partir de c\IeC {\'e}lulas pr\IeC {\'e} definidas no \emph  {software} MENTOR}}{5}}
\newlabel{fig:inversor_q1}{{1}{5}}
\@writefile{lot}{\contentsline {table}{\numberline {1}{\ignorespaces Descri\IeC {\c c}\IeC {\~a}o dos modos de extra\IeC {\c c}\IeC {\~a}o do \emph  {software} MENTOR para \emph  {layouts} CMOS}}{6}}
\newlabel{tab:param_extracao}{{1}{6}}
\@writefile{lof}{\contentsline {figure}{\numberline {2}{\ignorespaces Tens\IeC {\~a}o m\IeC {\'a}xima e m\IeC {\'\i }nima de acordo com o per\IeC {\'\i }odo simulado - tens\IeC {\~a}o ($V$) x tempo ($ns$)}}{7}}
\newlabel{fig:max_min_time}{{2}{7}}
\@writefile{lof}{\contentsline {figure}{\numberline {3}{\ignorespaces Frequ\IeC {\^e}ncia m\IeC {\'a}xima do sinal simulado - tens\IeC {\~a}o ($V$) x tempo ($ns$)}}{8}}
\newlabel{fig:freqmax_signals}{{3}{8}}
\@writefile{lof}{\contentsline {figure}{\numberline {4}{\ignorespaces Gr\IeC {\'a}ficos das correntes dos elementos do inversor (NMOS - $X1.MM0$ e PMOS - $X1.MM1$) - corrente ($A$) x tempo ($ns$); sinais de entrada ($VIN$) e sa\IeC {\'\i }da ($VOUT$) do inversor - tens\IeC {\~a}o ($V$) x tempo ($ns$)}}{9}}
\newlabel{fig:id_cmos_vinvout}{{4}{9}}
\@writefile{lof}{\contentsline {figure}{\numberline {5}{\ignorespaces Tens\IeC {\~a}o de entrada e sa\IeC {\'\i }da do sistema para a m\IeC {\'a}xima frequ\IeC {\^e}ncia de opera\IeC {\c c}\IeC {\~a}o - tens\IeC {\~a}o ($V$) x tempo ($ns$)}}{10}}
\newlabel{fig:inv_cmosvinvout}{{5}{10}}
\@writefile{lot}{\contentsline {table}{\numberline {2}{\ignorespaces Valores de atraso de subida, descida e pot\IeC {\^e}ncia consumida para capacit\IeC {\^a}ncias de carga variando de $50fF$ at\IeC {\'e} $300fF$}}{11}}
\newlabel{tab:param_capacitances}{{2}{11}}
\@writefile{lof}{\contentsline {figure}{\numberline {6}{\ignorespaces Sinais de entrada e sa\IeC {\'\i }da para capacit\IeC {\^a}ncia de carga de $300fF$ - tens\IeC {\~a}o ($V$) x tempo ($ns$)}}{12}}
\newlabel{fig:vinvout300}{{6}{12}}
\@writefile{lof}{\contentsline {figure}{\numberline {7}{\ignorespaces Sinais dos atrasos de subida (DELAY\_RISE) e descida (DELAY\_FALL) com rela\IeC {\c c}\IeC {\~a}o \IeC {\`a} capacit\IeC {\^a}ncia de carga - tempo ($ps$) x capacit\IeC {\^a}ncia ($fF$)}}{13}}
\newlabel{fig:tempxcap}{{7}{13}}
\@writefile{lof}{\contentsline {figure}{\numberline {8}{\ignorespaces Gr\IeC {\'a}fico da pot\IeC {\^e}ncia consumida com rela\IeC {\c c}\IeC {\~a}o \IeC {\`a} capacit\IeC {\^a}ncia de carga atribuida ao sistema - pot\IeC {\^e}ncia ($\ensuremath  {\SI@fstyle  {\upmu }}W$) x capacit\IeC {\^a}ncia ($fF$)}}{13}}
\newlabel{fig:wattxcap}{{8}{13}}
\@writefile{lof}{\contentsline {figure}{\numberline {9}{\ignorespaces Gr\IeC {\'a}fico das inclina\IeC {\c c}\IeC {\~o}es dos atrasos de subida e descida com rela\IeC {\c c}\IeC {\~a}o a $W_n$ com tens\IeC {\~a}o de $3V$ - inclina\IeC {\c c}\IeC {\~a}o ($ps/fF$) x $W_n$ ($\ensuremath  {\SI@fstyle  {\upmu }}m$)}}{14}}
\newlabel{fig:incli_subdesc_x_wn3}{{9}{14}}
\@writefile{lof}{\contentsline {figure}{\numberline {10}{\ignorespaces Gr\IeC {\'a}fico da inclina\IeC {\c c}\IeC {\~a}o da pot\IeC {\^e}ncia consumida com rela\IeC {\c c}\IeC {\~a}o a $W_n$ com tens\IeC {\~a}o de $3V$ - inclina\IeC {\c c}\IeC {\~a}o ($mW/(ps \tmspace  +\thinmuskip {.1667em}\unhbox \voidb@x \hbox {\textperiodcentered }\tmspace  +\thinmuskip {.1667em}Ghz)$) x $W_n$ ($\ensuremath  {\SI@fstyle  {\upmu }}m$)}}{14}}
\newlabel{fig:pot_x_wn3}{{10}{14}}
\@writefile{lof}{\contentsline {figure}{\numberline {11}{\ignorespaces Gr\IeC {\'a}fico das inclina\IeC {\c c}\IeC {\~o}es dos atrasos de subida e descida com rela\IeC {\c c}\IeC {\~a}o a $W_n$ com tens\IeC {\~a}o de $2V$ - inclina\IeC {\c c}\IeC {\~a}o ($ps/fF$) x $W_n$ ($\ensuremath  {\SI@fstyle  {\upmu }}m$)}}{15}}
\newlabel{fig:incli_subdesc_x_wn2}{{11}{15}}
\@writefile{lof}{\contentsline {figure}{\numberline {12}{\ignorespaces Gr\IeC {\'a}fico da inclina\IeC {\c c}\IeC {\~a}o da pot\IeC {\^e}ncia consumida com rela\IeC {\c c}\IeC {\~a}o a $W_n$ com tens\IeC {\~a}o de $2V$ - inclina\IeC {\c c}\IeC {\~a}o ($mW/(ps \tmspace  +\thinmuskip {.1667em}\unhbox \voidb@x \hbox {\textperiodcentered }\tmspace  +\thinmuskip {.1667em}Ghz)$) x $W_n$ ($\ensuremath  {\SI@fstyle  {\upmu }}m$)}}{15}}
\newlabel{fig:pot_x_wn2}{{12}{15}}
\@writefile{lot}{\contentsline {table}{\numberline {3}{\ignorespaces Valores de atraso de subida, descida e pot\IeC {\^e}ncia consumida para capacit\IeC {\^a}ncias de carga variando de $50fF$ at\IeC {\'e} $300fF$ com tens\IeC {\~a}o de alimenta\IeC {\c c}\IeC {\~a}o em $2V$}}{17}}
\newlabel{tab:param_capacitances_12}{{3}{17}}
\@writefile{lof}{\contentsline {figure}{\numberline {13}{\ignorespaces Sinais de entrada e sa\IeC {\'\i }da para capacit\IeC {\^a}ncia de carga de $300fF$ e tens\IeC {\~a}o de alimenta\IeC {\c c}\IeC {\~a}o de $2V$ - tens\IeC {\~a}o ($V$) x tempo ($ns$)}}{17}}
\newlabel{fig:vinvout300_12}{{13}{17}}
\@writefile{lof}{\contentsline {figure}{\numberline {14}{\ignorespaces Sinais dos atrasos de subida (DELAY\_RISE) e descida (DELAY\_FALL) com rela\IeC {\c c}\IeC {\~a}o \IeC {\`a} capacit\IeC {\^a}ncia de carga para a tens\IeC {\~a}o de alimenta\IeC {\c c}\IeC {\~a}o de $2V$ - tempo ($ps$) x capacit\IeC {\^a}ncia ($fF$)}}{18}}
\newlabel{fig:tempxcap_12}{{14}{18}}
\@writefile{lof}{\contentsline {figure}{\numberline {15}{\ignorespaces Gr\IeC {\'a}fico da pot\IeC {\^e}ncia consumida com rela\IeC {\c c}\IeC {\~a}o \IeC {\`a} capacit\IeC {\^a}ncia de carga atribuida ao sistema com tens\IeC {\~a}o de alimenta\IeC {\c c}\IeC {\~a}o de $2V$ - pot\IeC {\^e}ncia ($\ensuremath  {\SI@fstyle  {\upmu }}W$) x capacit\IeC {\^a}ncia ($fF$)}}{18}}
\newlabel{fig:wattxcap_12}{{15}{18}}
\@writefile{lof}{\contentsline {figure}{\numberline {16}{\ignorespaces \emph  {Layout} de tr\IeC {\^e}s inversores CMOS conectados em s\IeC {\'e}rie}}{19}}
\newlabel{fig:3inv}{{16}{19}}
\@writefile{lof}{\contentsline {figure}{\numberline {17}{\ignorespaces \emph  {Layout} de um oscilador em anel com cinco inversores CMOS}}{20}}
\newlabel{fig:osc_anel}{{17}{20}}
\@writefile{lot}{\contentsline {table}{\numberline {4}{\ignorespaces Valores de atraso de subida e descida par os inversores constituintes do oscilador em anel}}{21}}
\newlabel{tab:tempos_atraso_anel}{{4}{21}}
\@writefile{lof}{\contentsline {figure}{\numberline {18}{\ignorespaces Gr\IeC {\'a}fico dos per\IeC {\'\i }dos de oscila\IeC {\c c}\IeC {\~a}o dos osciladores em anel com rela\IeC {\c c}\IeC {\~a}o a $W_n$ - per\IeC {\'\i }odo de oscila\IeC {\c c}\IeC {\~a}o ($ns$) x $W_n$ ($\ensuremath  {\SI@fstyle  {\upmu }}m$)}}{22}}
\newlabel{fig:periodo_x_wn}{{18}{22}}
\@writefile{lot}{\contentsline {table}{\numberline {5}{\ignorespaces Coeficientes adiquiridos dos modelos utilizados para simula\IeC {\c c}\IeC {\~a}o dos elementos NMOS e PMOS}}{24}}
\newlabel{tab:param_effective}{{5}{24}}
\@writefile{lot}{\contentsline {table}{\numberline {6}{\ignorespaces Coeficientes de capacit\IeC {\^a}ncia de \emph  {overlap} adiquiridos dos modelos MODN e MODP utilizados nas simula\IeC {\c c}\IeC {\~o}es}}{26}}
\newlabel{tab:param_cap_overlap}{{6}{26}}
\@writefile{lot}{\contentsline {table}{\numberline {7}{\ignorespaces Valores para os coeficientes do modelo extr\IeC {\'\i }nseco dos dispositivos NMOS e PMOS}}{27}}
\newlabel{tab:coeficiente_21}{{7}{27}}
\newlabel{lab:questao22}{{2}{28}}
\@writefile{lof}{\contentsline {figure}{\numberline {19}{\ignorespaces Esquem\IeC {\'a}tico das capacit\IeC {\^a}ncias vistas por uma porta inversora}}{29}}
\newlabel{fig:capacitances_inverter}{{19}{29}}
